EESchema Schematic File Version 4
EELAYER 30 0
EELAYER END
$Descr A4 11693 8268
encoding utf-8
Sheet 7 7
Title ""
Date ""
Rev ""
Comp ""
Comment1 ""
Comment2 ""
Comment3 ""
Comment4 ""
$EndDescr
Text HLabel 3750 2400 0    50   Input ~ 0
Vin5V3
Text HLabel 3750 3800 0    50   Input ~ 0
GND
Text HLabel 8150 2400 2    50   Output ~ 0
Vout5V0P
Text HLabel 8150 3000 2    50   Output ~ 0
Vout5V0N
$Comp
L Regulator_SwitchedCapacitor:LM27762 U5
U 1 1 5E3D0363
P 5600 2600
F 0 "U5" H 5650 3067 50  0000 C CNN
F 1 "LM27762" H 5650 2976 50  0000 C CNN
F 2 "Package_SON:WSON-12-1EP_3x2mm_P0.5mm_EP1x2.65_ThermalVias" H 5750 1850 50  0001 L CNN
F 3 "http://www.ti.com/lit/ds/symlink/lm27762.pdf" H 8100 2200 50  0001 C CNN
F 4 "Texas Instruments" H 5600 2600 50  0001 C CNN "Manufacturer"
F 5 "LM27762DSSR" H 5600 2600 50  0001 C CNN "Part Number"
	1    5600 2600
	1    0    0    -1  
$EndComp
$Comp
L Device:C C34
U 1 1 5E3D4BC6
P 4950 3100
F 0 "C34" H 5065 3146 50  0000 L CNN
F 1 "1u" H 5065 3055 50  0000 L CNN
F 2 "Capacitor_SMD:C_0402_1005Metric" H 4988 2950 50  0001 C CNN
F 3 "" H 4950 3100 50  0001 C CNN
F 4 "Yageo" H 4950 3100 50  0001 C CNN "Manufacturer"
F 5 "CC0402KRX5R6BB105" H 4950 3100 50  0001 C CNN "Part Number"
	1    4950 3100
	1    0    0    -1  
$EndComp
Wire Wire Line
	4950 2950 5200 2950
Wire Wire Line
	5200 2950 5200 3000
Wire Wire Line
	5200 3200 5200 3250
Wire Wire Line
	5200 3250 4950 3250
$Comp
L Device:C C32
U 1 1 5E3D5CD7
P 4050 2650
F 0 "C32" H 4165 2696 50  0000 L CNN
F 1 "10u" H 4165 2605 50  0000 L CNN
F 2 "Capacitor_SMD:C_0603_1608Metric" H 4088 2500 50  0001 C CNN
F 3 "" H 4050 2650 50  0001 C CNN
F 4 "TDK Corporation" H 4050 2650 50  0001 C CNN "Manufacturer"
F 5 "C1608X5R1A106M080AC" H 4050 2650 50  0001 C CNN "Part Number"
	1    4050 2650
	1    0    0    -1  
$EndComp
$Comp
L Device:R R26
U 1 1 5E3D62B5
P 4750 2600
F 0 "R26" H 4820 2646 50  0000 L CNN
F 1 "10k" H 4820 2555 50  0000 L CNN
F 2 "Resistor_SMD:R_0603_1608Metric" V 4680 2600 50  0001 C CNN
F 3 "" H 4750 2600 50  0001 C CNN
F 4 "Panasonic Electronic Components" H 4750 2600 50  0001 C CNN "Manufacturer"
F 5 "ERJ-3EKF1002V" H 4750 2600 50  0001 C CNN "Part Number"
	1    4750 2600
	1    0    0    -1  
$EndComp
$Comp
L Device:C C33
U 1 1 5E3D6789
P 4350 2650
F 0 "C33" H 4465 2696 50  0000 L CNN
F 1 "1u" H 4465 2605 50  0000 L CNN
F 2 "Capacitor_SMD:C_0402_1005Metric" H 4388 2500 50  0001 C CNN
F 3 "" H 4350 2650 50  0001 C CNN
F 4 "Samsung Electro-Mechanics" H 4350 2650 50  0001 C CNN "Manufacturer"
F 5 "CL05A105KA5NQNC" H 4350 2650 50  0001 C CNN "Part Number"
	1    4350 2650
	1    0    0    -1  
$EndComp
Wire Wire Line
	4050 2500 4050 2400
Wire Wire Line
	4350 2500 4350 2400
Connection ~ 4350 2400
Wire Wire Line
	4350 2400 4050 2400
Wire Wire Line
	5200 2600 4950 2600
Wire Wire Line
	4950 2600 4950 2750
Wire Wire Line
	4950 2750 4750 2750
Wire Wire Line
	4750 2450 4750 2400
Connection ~ 4750 2400
Wire Wire Line
	4750 2400 4350 2400
Wire Wire Line
	5200 2700 5100 2700
Wire Wire Line
	5100 2700 5100 2400
Wire Wire Line
	5100 2400 4750 2400
Wire Wire Line
	5200 2800 5100 2800
Wire Wire Line
	5100 2800 5100 2700
Connection ~ 5100 2700
$Comp
L Device:C C35
U 1 1 5E3DEE84
P 6200 3400
F 0 "C35" H 6315 3446 50  0000 L CNN
F 1 "4.7u" H 6315 3355 50  0000 L CNN
F 2 "Capacitor_SMD:C_0603_1608Metric" H 6238 3250 50  0001 C CNN
F 3 "" H 6200 3400 50  0001 C CNN
F 4 "KEMET" H 6200 3400 50  0001 C CNN "Manufacturer"
F 5 "C0603C475K9PACTU" H 6200 3400 50  0001 C CNN "Part Number"
	1    6200 3400
	1    0    0    -1  
$EndComp
Wire Wire Line
	6100 3200 6200 3200
Wire Wire Line
	6200 3200 6200 3250
$Comp
L Device:R R28
U 1 1 5E3E1A8D
P 6650 3600
F 0 "R28" H 6720 3646 50  0000 L CNN
F 1 "100k" H 6720 3555 50  0000 L CNN
F 2 "Resistor_SMD:R_0603_1608Metric" V 6580 3600 50  0001 C CNN
F 3 "" H 6650 3600 50  0001 C CNN
F 4 "Vishay Dale" H 6650 3600 50  0001 C CNN "Manufacturer"
F 5 "CRCW0603100KFKEAC" H 6650 3600 50  0001 C CNN "Part Number"
	1    6650 3600
	1    0    0    -1  
$EndComp
$Comp
L Device:R R27
U 1 1 5E3E1723
P 6650 3200
F 0 "R27" H 6720 3246 50  0000 L CNN
F 1 "316k" H 6720 3155 50  0000 L CNN
F 2 "Resistor_SMD:R_0603_1608Metric" V 6580 3200 50  0001 C CNN
F 3 "" H 6650 3200 50  0001 C CNN
F 4 "Yageo" H 6650 3200 50  0001 C CNN "Manufacturer"
F 5 "RC0603FR-07316KL" H 6650 3200 50  0001 C CNN "Part Number"
	1    6650 3200
	1    0    0    -1  
$EndComp
$Comp
L Device:C C36
U 1 1 5E3E12E4
P 7000 3400
F 0 "C36" H 7000 3500 50  0000 L CNN
F 1 "2.2u" H 7000 3300 50  0000 L CNN
F 2 "Capacitor_SMD:C_0603_1608Metric" H 7038 3250 50  0001 C CNN
F 3 "" H 7000 3400 50  0001 C CNN
F 4 "TDK Corporation" H 7000 3400 50  0001 C CNN "Manufacturer"
F 5 "C1608X5R1C225K080AB" H 7000 3400 50  0001 C CNN "Part Number"
	1    7000 3400
	1    0    0    -1  
$EndComp
Wire Wire Line
	3750 3800 4050 3800
Wire Wire Line
	6200 3550 6200 3800
Connection ~ 6200 3800
Wire Wire Line
	5700 3400 5700 3800
Connection ~ 5700 3800
Wire Wire Line
	5700 3800 6200 3800
Wire Wire Line
	5600 3400 5600 3800
Connection ~ 5600 3800
Wire Wire Line
	5600 3800 5700 3800
Wire Wire Line
	4350 2800 4350 3800
Connection ~ 4350 3800
Wire Wire Line
	4350 3800 5600 3800
Wire Wire Line
	4050 2800 4050 3800
Connection ~ 4050 3800
Wire Wire Line
	4050 3800 4350 3800
Wire Wire Line
	6200 3800 6650 3800
Wire Wire Line
	6100 3000 6650 3000
Wire Wire Line
	6650 3000 6650 3050
Wire Wire Line
	6650 3350 6650 3400
Wire Wire Line
	6650 3750 6650 3800
Connection ~ 6650 3800
Wire Wire Line
	6650 3800 7000 3800
Wire Wire Line
	7000 3800 7000 3550
Wire Wire Line
	7000 3000 7000 3250
Wire Wire Line
	6100 2800 6450 2800
Wire Wire Line
	6450 2800 6450 3400
Wire Wire Line
	6450 3400 6650 3400
Connection ~ 6650 3400
Wire Wire Line
	6650 3400 6650 3450
$Comp
L Device:R R30
U 1 1 5E3FDD58
P 7400 3600
F 0 "R30" H 7470 3646 50  0000 L CNN
F 1 "100k" H 7470 3555 50  0000 L CNN
F 2 "Resistor_SMD:R_0603_1608Metric" V 7330 3600 50  0001 C CNN
F 3 "" H 7400 3600 50  0001 C CNN
F 4 "Vishay Dale" H 7400 3600 50  0001 C CNN "Manufacturer"
F 5 "CRCW0603100KFKEAC" H 7400 3600 50  0001 C CNN "Part Number"
	1    7400 3600
	1    0    0    -1  
$EndComp
$Comp
L Device:R R29
U 1 1 5E3FDD60
P 7400 3200
F 0 "R29" H 7470 3246 50  0000 L CNN
F 1 "316k" H 7470 3155 50  0000 L CNN
F 2 "Resistor_SMD:R_0603_1608Metric" V 7330 3200 50  0001 C CNN
F 3 "" H 7400 3200 50  0001 C CNN
F 4 "Yageo" H 7400 3200 50  0001 C CNN "Manufacturer"
F 5 "RC0603FR-07316KL" H 7400 3200 50  0001 C CNN "Part Number"
	1    7400 3200
	1    0    0    -1  
$EndComp
$Comp
L Device:C C37
U 1 1 5E3FDD68
P 7750 3400
F 0 "C37" H 7750 3500 50  0000 L CNN
F 1 "2.2u" H 7750 3300 50  0000 L CNN
F 2 "Capacitor_SMD:C_0603_1608Metric" H 7788 3250 50  0001 C CNN
F 3 "" H 7750 3400 50  0001 C CNN
F 4 "TDK Corporation" H 7750 3400 50  0001 C CNN "Manufacturer"
F 5 "C1608X5R1C225K080AB" H 7750 3400 50  0001 C CNN "Part Number"
	1    7750 3400
	1    0    0    -1  
$EndComp
Wire Wire Line
	7400 3350 7400 3400
Wire Wire Line
	7400 3750 7400 3800
Wire Wire Line
	7750 3800 7750 3550
Wire Wire Line
	7200 3400 7400 3400
Connection ~ 7400 3400
Wire Wire Line
	7400 3400 7400 3450
Wire Wire Line
	6650 3000 7000 3000
Connection ~ 6650 3000
Wire Wire Line
	7400 2400 6100 2400
Wire Wire Line
	7400 2400 7400 3050
Wire Wire Line
	7750 2400 7400 2400
Wire Wire Line
	7750 2400 7750 3250
Connection ~ 7400 2400
Wire Wire Line
	8150 2400 7750 2400
Connection ~ 7750 2400
Wire Wire Line
	8150 3000 7000 3000
Connection ~ 7000 3000
Wire Wire Line
	7000 3800 7400 3800
Connection ~ 7000 3800
Connection ~ 7400 3800
Wire Wire Line
	7400 3800 7750 3800
Wire Wire Line
	7200 2600 6100 2600
Wire Wire Line
	7200 2600 7200 3400
Wire Wire Line
	5200 2400 5100 2400
Connection ~ 5100 2400
Wire Wire Line
	3750 2400 4050 2400
Connection ~ 4050 2400
$EndSCHEMATC
