EESchema Schematic File Version 4
EELAYER 30 0
EELAYER END
$Descr A4 11693 8268
encoding utf-8
Sheet 6 7
Title ""
Date ""
Rev ""
Comp ""
Comment1 ""
Comment2 ""
Comment3 ""
Comment4 ""
$EndDescr
Text HLabel 7650 3100 0    50   Input ~ 0
Vin12V0
Text HLabel 3200 4750 0    50   Input ~ 0
GND
Wire Wire Line
	6050 4750 6150 4750
Wire Wire Line
	6750 4100 6650 4100
Wire Wire Line
	6650 4200 6750 4200
Wire Wire Line
	6750 4200 6750 4100
Connection ~ 6450 4750
Wire Wire Line
	6450 4750 6750 4750
Connection ~ 6350 4750
Wire Wire Line
	6350 4750 6450 4750
Connection ~ 6250 4750
Wire Wire Line
	6250 4750 6350 4750
Connection ~ 6150 4750
Wire Wire Line
	6150 4750 6250 4750
Connection ~ 6050 4750
Wire Wire Line
	5750 4000 5700 4000
$Comp
L Device:R R?
U 1 1 5E3B7E80
P 5350 4200
AR Path="/5E194F27/5E3B7E80" Ref="R?"  Part="1" 
AR Path="/5E2B203C/5E3B7E80" Ref="R22"  Part="1" 
AR Path="/61C65F9B/5E3B7E80" Ref="R41"  Part="1" 
F 0 "R41" H 5420 4246 50  0000 L CNN
F 1 "NC" H 5420 4155 50  0000 L CNN
F 2 "Resistor_SMD:R_0603_1608Metric" V 5280 4200 50  0001 C CNN
F 3 "" H 5350 4200 50  0001 C CNN
	1    5350 4200
	1    0    0    -1  
$EndComp
$Comp
L Device:C C?
U 1 1 61D442C8
P 5350 4550
AR Path="/5E194F27/61D442C8" Ref="C?"  Part="1" 
AR Path="/5E2B203C/61D442C8" Ref="C26"  Part="1" 
AR Path="/61C65F9B/61D442C8" Ref="C49"  Part="1" 
F 0 "C49" H 5465 4596 50  0000 L CNN
F 1 "NC" H 5465 4505 50  0000 L CNN
F 2 "Capacitor_SMD:C_0603_1608Metric" H 5388 4400 50  0001 C CNN
F 3 "" H 5350 4550 50  0001 C CNN
	1    5350 4550
	1    0    0    -1  
$EndComp
Wire Wire Line
	6750 4200 6750 4750
Connection ~ 6750 4200
Wire Wire Line
	6050 4400 6050 4750
Wire Wire Line
	6150 4400 6150 4750
Wire Wire Line
	6250 4400 6250 4750
Wire Wire Line
	6350 4400 6350 4750
Wire Wire Line
	6450 4400 6450 4750
Wire Wire Line
	5950 4400 5950 4450
Wire Wire Line
	5950 4450 5700 4450
Wire Wire Line
	5700 4450 5700 4200
Wire Wire Line
	5700 4100 5750 4100
Wire Wire Line
	5750 4200 5700 4200
Connection ~ 5700 4200
Wire Wire Line
	5700 4200 5700 4100
Wire Wire Line
	5700 4100 5700 4000
Connection ~ 5700 4100
$Comp
L Device:L L?
U 1 1 61D442C9
P 5000 4000
AR Path="/5E194F27/61D442C9" Ref="L?"  Part="1" 
AR Path="/5E2B203C/61D442C9" Ref="L3"  Part="1" 
AR Path="/61C65F9B/61D442C9" Ref="L4"  Part="1" 
F 0 "L4" V 4950 4100 50  0000 C CNN
F 1 "3.3u" V 4950 3900 50  0000 C CNN
F 2 "000_footprint:L_Murata_FDVE1040" H 5000 4000 50  0001 C CNN
F 3 "" H 5000 4000 50  0001 C CNN
F 4 "Murata" V 5000 4000 50  0001 C CNN "Manufacturer"
F 5 "FDVE1040-H-3R3M=P3" V 5000 4000 50  0001 C CNN "Part Number"
	1    5000 4000
	0    -1   -1   0   
$EndComp
$Comp
L Device:C C?
U 1 1 61D442CA
P 4650 4350
AR Path="/5E194F27/61D442CA" Ref="C?"  Part="1" 
AR Path="/5E2B203C/61D442CA" Ref="C23"  Part="1" 
AR Path="/61C65F9B/61D442CA" Ref="C48"  Part="1" 
F 0 "C48" H 4700 4450 50  0000 L CNN
F 1 "NC" H 4700 4250 50  0000 L CNN
F 2 "Capacitor_SMD:C_1210_3225Metric" H 4688 4200 50  0001 C CNN
F 3 "" H 4650 4350 50  0001 C CNN
	1    4650 4350
	1    0    0    -1  
$EndComp
$Comp
L Device:C C?
U 1 1 61D442CB
P 4400 4350
AR Path="/5E194F27/61D442CB" Ref="C?"  Part="1" 
AR Path="/5E2B203C/61D442CB" Ref="C22"  Part="1" 
AR Path="/61C65F9B/61D442CB" Ref="C47"  Part="1" 
F 0 "C47" H 4450 4450 50  0000 L CNN
F 1 "47u" H 4450 4250 50  0000 L CNN
F 2 "Capacitor_SMD:C_1210_3225Metric" H 4438 4200 50  0001 C CNN
F 3 "" H 4400 4350 50  0001 C CNN
F 4 "Murata" H 4400 4350 50  0001 C CNN "Manufacturer"
F 5 "GRM32ER70J476KE20L" H 4400 4350 50  0001 C CNN "Part Number"
	1    4400 4350
	1    0    0    -1  
$EndComp
$Comp
L Device:C C?
U 1 1 61D442CC
P 4150 4350
AR Path="/5E194F27/61D442CC" Ref="C?"  Part="1" 
AR Path="/5E2B203C/61D442CC" Ref="C21"  Part="1" 
AR Path="/61C65F9B/61D442CC" Ref="C46"  Part="1" 
F 0 "C46" H 4200 4450 50  0000 L CNN
F 1 "47u" H 4200 4250 50  0000 L CNN
F 2 "Capacitor_SMD:C_1210_3225Metric" H 4188 4200 50  0001 C CNN
F 3 "" H 4150 4350 50  0001 C CNN
F 4 "Murata" H 4150 4350 50  0001 C CNN "Manufacturer"
F 5 "GRM32ER70J476KE20L" H 4150 4350 50  0001 C CNN "Part Number"
	1    4150 4350
	1    0    0    -1  
$EndComp
Wire Wire Line
	4650 4000 4650 4200
Wire Wire Line
	4400 4200 4400 4000
Wire Wire Line
	4400 4000 4650 4000
Wire Wire Line
	4400 4000 4150 4000
Wire Wire Line
	4150 4000 4150 4200
Connection ~ 4400 4000
Wire Wire Line
	4150 4500 4150 4750
Wire Wire Line
	4150 4750 4400 4750
Wire Wire Line
	4400 4500 4400 4750
Connection ~ 4400 4750
Wire Wire Line
	4400 4750 4650 4750
Wire Wire Line
	4650 4500 4650 4750
Connection ~ 4650 4750
Wire Wire Line
	5750 3800 5700 3800
Wire Wire Line
	5350 3800 5300 3800
Connection ~ 4150 4750
Wire Wire Line
	5300 3900 5750 3900
Wire Wire Line
	4650 4750 5350 4750
Wire Wire Line
	4850 4000 4650 4000
Connection ~ 4650 4000
Wire Wire Line
	5150 4000 5350 4000
Wire Wire Line
	5350 4000 5350 4050
Wire Wire Line
	5350 4350 5350 4400
Wire Wire Line
	5350 4700 5350 4750
Connection ~ 5350 4750
Wire Wire Line
	5350 4750 6050 4750
Wire Wire Line
	5700 4000 5350 4000
Connection ~ 5700 4000
Connection ~ 5350 4000
Wire Wire Line
	5300 3800 5300 3900
$Comp
L Device:C C?
U 1 1 61D442CD
P 4950 3600
AR Path="/5E194F27/61D442CD" Ref="C?"  Part="1" 
AR Path="/5E2B203C/61D442CD" Ref="C24"  Part="1" 
AR Path="/61C65F9B/61D442CD" Ref="C42"  Part="1" 
F 0 "C42" V 4900 3500 50  0000 C CNN
F 1 "1500p" V 4900 3700 50  0000 C CNN
F 2 "Capacitor_SMD:C_0603_1608Metric" H 4988 3450 50  0001 C CNN
F 3 "" H 4950 3600 50  0001 C CNN
F 4 "Murata" V 4950 3600 50  0001 C CNN "Manufacturer"
F 5 "GRM188R72A152KA01D" V 4950 3600 50  0001 C CNN "Part Number"
	1    4950 3600
	0    1    1    0   
$EndComp
$Comp
L Device:C C?
U 1 1 61D442CE
P 5200 3350
AR Path="/5E194F27/61D442CE" Ref="C?"  Part="1" 
AR Path="/5E2B203C/61D442CE" Ref="C25"  Part="1" 
AR Path="/61C65F9B/61D442CE" Ref="C39"  Part="1" 
F 0 "C39" V 5150 3250 50  0000 C CNN
F 1 "4.7p" V 5150 3450 50  0000 C CNN
F 2 "Capacitor_SMD:C_0603_1608Metric" H 5238 3200 50  0001 C CNN
F 3 "" H 5200 3350 50  0001 C CNN
F 4 "Murata" V 5200 3350 50  0001 C CNN "Manufacturer"
F 5 "GRM1885C1H4R7CA01D" V 5200 3350 50  0001 C CNN "Part Number"
	1    5200 3350
	0    1    1    0   
$EndComp
$Comp
L Device:R R?
U 1 1 5E3B7EFF
P 5400 3600
AR Path="/5E194F27/5E3B7EFF" Ref="R?"  Part="1" 
AR Path="/5E2B203C/5E3B7EFF" Ref="R23"  Part="1" 
AR Path="/61C65F9B/5E3B7EFF" Ref="R38"  Part="1" 
F 0 "R38" V 5300 3500 50  0000 C CNN
F 1 "31.6k" V 5300 3700 50  0000 C CNN
F 2 "Resistor_SMD:R_0603_1608Metric" V 5330 3600 50  0001 C CNN
F 3 "" H 5400 3600 50  0001 C CNN
F 4 "Vishay Dale" V 5400 3600 50  0001 C CNN "Manufacturer"
F 5 "CRCW060331K6FKEA" V 5400 3600 50  0001 C CNN "Part Number"
	1    5400 3600
	0    1    1    0   
$EndComp
Wire Wire Line
	5750 3600 5600 3600
Wire Wire Line
	5250 3600 5100 3600
Wire Wire Line
	5350 3350 5600 3350
Wire Wire Line
	5600 3350 5600 3600
Connection ~ 5600 3600
Wire Wire Line
	5600 3600 5550 3600
Wire Wire Line
	5050 3350 4700 3350
Wire Wire Line
	4700 3350 4700 3600
Wire Wire Line
	4700 3600 4800 3600
$Comp
L Device:R R?
U 1 1 5E3B7F0F
P 3700 3850
AR Path="/5E194F27/5E3B7F0F" Ref="R?"  Part="1" 
AR Path="/5E2B203C/5E3B7F0F" Ref="R19"  Part="1" 
AR Path="/61C65F9B/5E3B7F0F" Ref="R40"  Part="1" 
F 0 "R40" V 3650 3750 50  0000 C CNN
F 1 "NC" V 3650 3950 50  0000 C CNN
F 2 "Resistor_SMD:R_0603_1608Metric" V 3630 3850 50  0001 C CNN
F 3 "" H 3700 3850 50  0001 C CNN
	1    3700 3850
	0    1    1    0   
$EndComp
$Comp
L Device:C C?
U 1 1 5E3B7F15
P 4100 3850
AR Path="/5E194F27/5E3B7F15" Ref="C?"  Part="1" 
AR Path="/5E2B203C/5E3B7F15" Ref="C20"  Part="1" 
AR Path="/61C65F9B/5E3B7F15" Ref="C44"  Part="1" 
F 0 "C44" V 4050 3750 50  0000 C CNN
F 1 "NC" V 4050 3950 50  0000 C CNN
F 2 "Capacitor_SMD:C_0603_1608Metric" H 4138 3700 50  0001 C CNN
F 3 "" H 4100 3850 50  0001 C CNN
	1    4100 3850
	0    1    1    0   
$EndComp
Wire Wire Line
	4050 3700 4350 3700
Wire Wire Line
	3950 3850 3850 3850
Wire Wire Line
	3750 3700 3450 3700
Wire Wire Line
	3450 3700 3450 3850
Wire Wire Line
	3450 3850 3550 3850
Wire Wire Line
	4150 4000 3450 4000
Wire Wire Line
	3450 4000 3450 3850
Connection ~ 4150 4000
Connection ~ 3450 3850
Wire Wire Line
	4250 3850 4350 3850
Wire Wire Line
	4350 3850 4350 3700
Connection ~ 4350 3700
Wire Wire Line
	4350 3700 5750 3700
$Comp
L Device:R R?
U 1 1 5E3B7F32
P 4350 3450
AR Path="/5E194F27/5E3B7F32" Ref="R?"  Part="1" 
AR Path="/5E2B203C/5E3B7F32" Ref="R21"  Part="1" 
AR Path="/61C65F9B/5E3B7F32" Ref="R37"  Part="1" 
F 0 "R37" H 4500 3400 50  0000 C CNN
F 1 "2.21k" H 4500 3500 50  0000 C CNN
F 2 "Resistor_SMD:R_0603_1608Metric" V 4280 3450 50  0001 C CNN
F 3 "" H 4350 3450 50  0001 C CNN
F 4 "Vishay Dale" V 4350 3450 50  0001 C CNN "Manufacturer"
F 5 "CRCW06032K21FKEA" V 4350 3450 50  0001 C CNN "Part Number"
	1    4350 3450
	-1   0    0    1   
$EndComp
Wire Wire Line
	4350 3600 4350 3700
$Comp
L Device:R R?
U 1 1 5E3B7F3D
P 6100 2750
AR Path="/5E194F27/5E3B7F3D" Ref="R?"  Part="1" 
AR Path="/5E2B203C/5E3B7F3D" Ref="R24"  Part="1" 
AR Path="/61C65F9B/5E3B7F3D" Ref="R35"  Part="1" 
F 0 "R35" V 6000 2650 50  0000 C CNN
F 1 "100k" V 6000 2850 50  0000 C CNN
F 2 "Resistor_SMD:R_0603_1608Metric" V 6030 2750 50  0001 C CNN
F 3 "" H 6100 2750 50  0001 C CNN
F 4 "Vishay Dale" V 6100 2750 50  0001 C CNN "Manufacturer"
F 5 "CRCW0603100KFKEA" V 6100 2750 50  0001 C CNN "Part Number"
	1    6100 2750
	0    1    1    0   
$EndComp
Wire Wire Line
	6250 2750 6250 3400
Connection ~ 5700 3800
Wire Wire Line
	5700 3800 5650 3800
$Comp
L Device:C C?
U 1 1 5E3B7F4B
P 5800 3100
AR Path="/5E194F27/5E3B7F4B" Ref="C?"  Part="1" 
AR Path="/5E2B203C/5E3B7F4B" Ref="C28"  Part="1" 
AR Path="/61C65F9B/5E3B7F4B" Ref="C38"  Part="1" 
F 0 "C38" H 5850 3200 50  0000 L CNN
F 1 "22n" H 5850 3000 50  0000 L CNN
F 2 "Capacitor_SMD:C_0603_1608Metric" H 5838 2950 50  0001 C CNN
F 3 "" H 5800 3100 50  0001 C CNN
F 4 "Murata" H 5800 3100 50  0001 C CNN "Manufacturer"
F 5 "GRM188R72A223KAC4D" H 5800 3100 50  0001 C CNN "Part Number"
	1    5800 3100
	1    0    0    -1  
$EndComp
$Comp
L Device:R R?
U 1 1 5E3B7F53
P 6150 3100
AR Path="/5E194F27/5E3B7F53" Ref="R?"  Part="1" 
AR Path="/5E2B203C/5E3B7F53" Ref="R25"  Part="1" 
AR Path="/61C65F9B/5E3B7F53" Ref="R36"  Part="1" 
F 0 "R36" H 6250 3000 50  0000 C CNN
F 1 "100k" H 6200 3100 50  0000 C CNN
F 2 "Resistor_SMD:R_0603_1608Metric" V 6080 3100 50  0001 C CNN
F 3 "" H 6150 3100 50  0001 C CNN
F 4 "Vishay Dale" V 6150 3100 50  0001 C CNN "Manufacturer"
F 5 "CRCW0603100KFKEA" V 6150 3100 50  0001 C CNN "Part Number"
	1    6150 3100
	-1   0    0    1   
$EndComp
Wire Wire Line
	6150 3400 6150 3250
Wire Wire Line
	5800 2950 5800 2900
Wire Wire Line
	6150 2950 6150 2900
Wire Wire Line
	5800 2900 6150 2900
Wire Wire Line
	5800 3250 5800 3400
Wire Wire Line
	5800 3400 5950 3400
$Comp
L Device:C C?
U 1 1 5E3B7F62
P 6900 3900
AR Path="/5E194F27/5E3B7F62" Ref="C?"  Part="1" 
AR Path="/5E2B203C/5E3B7F62" Ref="C29"  Part="1" 
AR Path="/61C65F9B/5E3B7F62" Ref="C45"  Part="1" 
F 0 "C45" V 6850 3800 50  0000 C CNN
F 1 "0.1u" V 6850 4000 50  0000 C CNN
F 2 "Capacitor_SMD:C_0603_1608Metric" H 6938 3750 50  0001 C CNN
F 3 "" H 6900 3900 50  0001 C CNN
F 4 "Murata" V 6900 3900 50  0001 C CNN "Manufacturer"
F 5 "GRM188R72A104KA35D" V 6900 3900 50  0001 C CNN "Part Number"
	1    6900 3900
	0    1    1    0   
$EndComp
Wire Wire Line
	6650 3900 6750 3900
Wire Wire Line
	7050 3900 7100 3900
Wire Wire Line
	7100 3900 7100 4000
Wire Wire Line
	7100 4000 6650 4000
$Comp
L Device:C C?
U 1 1 5E3B7F6E
P 7350 3550
AR Path="/5E194F27/5E3B7F6E" Ref="C?"  Part="1" 
AR Path="/5E2B203C/5E3B7F6E" Ref="C30"  Part="1" 
AR Path="/61C65F9B/5E3B7F6E" Ref="C40"  Part="1" 
F 0 "C40" H 7465 3596 50  0000 L CNN
F 1 "10u" H 7465 3505 50  0000 L CNN
F 2 "Capacitor_SMD:C_1206_3216Metric" H 7388 3400 50  0001 C CNN
F 3 "" H 7350 3550 50  0001 C CNN
F 4 "Murata" H 7350 3550 50  0001 C CNN "Manufacturer"
F 5 "GRM31MR61E106MA12L" H 7350 3550 50  0001 C CNN "Part Number"
	1    7350 3550
	1    0    0    -1  
$EndComp
$Comp
L Device:C C?
U 1 1 5E3B7F76
P 7650 3550
AR Path="/5E194F27/5E3B7F76" Ref="C?"  Part="1" 
AR Path="/5E2B203C/5E3B7F76" Ref="C31"  Part="1" 
AR Path="/61C65F9B/5E3B7F76" Ref="C41"  Part="1" 
F 0 "C41" H 7765 3596 50  0000 L CNN
F 1 "10u" H 7765 3505 50  0000 L CNN
F 2 "Capacitor_SMD:C_1206_3216Metric" H 7688 3400 50  0001 C CNN
F 3 "" H 7650 3550 50  0001 C CNN
F 4 "Murata" H 7650 3550 50  0001 C CNN "Manufacturer"
F 5 "GRM31MR61E106MA12L" H 7650 3550 50  0001 C CNN "Part Number"
	1    7650 3550
	1    0    0    -1  
$EndComp
Wire Wire Line
	6450 3400 6450 3350
Wire Wire Line
	6450 3350 6850 3350
Wire Wire Line
	7350 3350 7350 3400
Wire Wire Line
	7350 3350 7650 3350
Wire Wire Line
	7650 3350 7650 3400
Connection ~ 7350 3350
Wire Wire Line
	7350 3800 7350 3700
Wire Wire Line
	7650 3800 7650 3700
Wire Wire Line
	7350 3800 7650 3800
Wire Wire Line
	6650 3600 6850 3600
Wire Wire Line
	6850 3600 6850 3350
Connection ~ 6850 3350
Wire Wire Line
	6850 3350 7350 3350
Wire Wire Line
	6650 3700 6850 3700
Wire Wire Line
	6850 3700 6850 3600
Connection ~ 6850 3600
Wire Wire Line
	6650 3800 6850 3800
Wire Wire Line
	6850 3800 6850 3700
Connection ~ 6850 3700
Wire Wire Line
	3450 3300 3450 3700
Connection ~ 3450 3700
Wire Wire Line
	7650 3100 7650 3350
Connection ~ 7650 3350
Wire Wire Line
	6450 3350 6350 3350
Wire Wire Line
	6350 3350 6350 3400
Connection ~ 6450 3350
Wire Wire Line
	5950 4450 7100 4450
Wire Wire Line
	7100 4450 7100 4000
Connection ~ 5950 4450
Connection ~ 7100 4000
Wire Wire Line
	7350 3800 7350 4750
Wire Wire Line
	7350 4750 6750 4750
Connection ~ 7350 3800
Connection ~ 6750 4750
Wire Wire Line
	4350 2750 4550 2750
Wire Wire Line
	4850 2750 4850 2800
Wire Wire Line
	4350 2750 4350 3300
Wire Wire Line
	4700 3350 4700 2750
Connection ~ 4700 3350
Connection ~ 4700 2750
Wire Wire Line
	4700 2750 4850 2750
Wire Wire Line
	5300 3900 4550 3900
Wire Wire Line
	4550 3900 4550 2750
Connection ~ 5300 3900
Connection ~ 4550 2750
Wire Wire Line
	4550 2750 4700 2750
Wire Wire Line
	5800 2900 5000 2900
Wire Wire Line
	5000 2900 5000 2750
Wire Wire Line
	5000 2750 4850 2750
Connection ~ 5800 2900
Connection ~ 4850 2750
$Comp
L power:GND #PWR024
U 1 1 5E2BE288
P 4850 2800
AR Path="/5E2B203C/5E2BE288" Ref="#PWR024"  Part="1" 
AR Path="/61C65F9B/5E2BE288" Ref="#PWR0601"  Part="1" 
F 0 "#PWR0601" H 4850 2550 50  0001 C CNN
F 1 "GND" H 4855 2627 50  0000 C CNN
F 2 "" H 4850 2800 50  0001 C CNN
F 3 "" H 4850 2800 50  0001 C CNN
	1    4850 2800
	1    0    0    -1  
$EndComp
Wire Wire Line
	3200 4750 4150 4750
$Comp
L Device:R R?
U 1 1 5E4C8524
P 5700 2750
AR Path="/5E194F27/5E4C8524" Ref="R?"  Part="1" 
AR Path="/5E2B203C/5E4C8524" Ref="R32"  Part="1" 
AR Path="/61C65F9B/5E4C8524" Ref="R34"  Part="1" 
F 0 "R34" V 5600 2650 50  0000 C CNN
F 1 "0" V 5600 2850 50  0000 C CNN
F 2 "Resistor_SMD:R_1206_3216Metric" V 5630 2750 50  0001 C CNN
F 3 "" H 5700 2750 50  0001 C CNN
F 4 "Yageo" V 5700 2750 50  0001 C CNN "Manufacturer"
F 5 "RC1206JR-070RL" V 5700 2750 50  0001 C CNN "Part Number"
	1    5700 2750
	0    1    1    0   
$EndComp
Wire Wire Line
	5950 2750 5850 2750
Wire Wire Line
	5550 2750 5500 2750
Wire Wire Line
	5500 2750 5500 3250
Wire Wire Line
	5500 3250 5700 3250
Wire Wire Line
	5700 3250 5700 3800
$Comp
L Device:C C27
U 1 1 5E34DE24
P 5500 3800
AR Path="/5E2B203C/5E34DE24" Ref="C27"  Part="1" 
AR Path="/61C65F9B/5E34DE24" Ref="C43"  Part="1" 
F 0 "C43" V 5450 3700 50  0000 C CNN
F 1 "1u" V 5450 3900 50  0000 C CNN
F 2 "Capacitor_SMD:C_0603_1608Metric" H 5538 3650 50  0001 C CNN
F 3 "" H 5500 3800 50  0001 C CNN
F 4 "Murata" V 5500 3800 50  0001 C CNN "Manufacturer"
F 5 "GRM188R61C105KA12D" V 5500 3800 50  0001 C CNN "Part Number"
	1    5500 3800
	0    1    1    0   
$EndComp
Text HLabel 3450 3300 2    50   Output ~ 0
Vout5V3
$Comp
L 000_symbol:ADP2384 U4
U 1 1 61D442DB
P 6200 3900
AR Path="/5E2B203C/61D442DB" Ref="U4"  Part="1" 
AR Path="/61C65F9B/61D442DB" Ref="U6"  Part="1" 
F 0 "U6" H 6200 3900 50  0000 C CNN
F 1 "ADP2384" H 6650 4350 50  0000 C CNN
F 2 "000_footprint:ADP2384_LFCSP_WQ-24-2EP_4x4mm" H 6200 3900 50  0001 C CNN
F 3 "" H 6200 3900 50  0001 C CNN
F 4 "Analog Devices" H 6200 3900 50  0001 C CNN "Manufacturer"
F 5 "ADP2384ACPZN-R7" H 6200 3900 50  0001 C CNN "Part Number"
	1    6200 3900
	1    0    0    -1  
$EndComp
$Comp
L Device:R R?
U 1 1 5E3B7F1D
P 3900 3700
AR Path="/5E194F27/5E3B7F1D" Ref="R?"  Part="1" 
AR Path="/5E2B203C/5E3B7F1D" Ref="R20"  Part="1" 
AR Path="/61C65F9B/5E3B7F1D" Ref="R39"  Part="1" 
F 0 "R39" V 3800 3600 50  0000 C CNN
F 1 "17.4k" V 3800 3800 50  0000 C CNN
F 2 "Resistor_SMD:R_0603_1608Metric" V 3830 3700 50  0001 C CNN
F 3 "" H 3900 3700 50  0001 C CNN
F 4 "Vishay Dale" V 3900 3700 50  0001 C CNN "Manufacturer"
F 5 "CRCW060317K4FKEA" V 3900 3700 50  0001 C CNN "Part Number"
	1    3900 3700
	0    1    1    0   
$EndComp
$EndSCHEMATC
