EESchema Schematic File Version 4
EELAYER 30 0
EELAYER END
$Descr A4 11693 8268
encoding utf-8
Sheet 4 7
Title ""
Date ""
Rev ""
Comp ""
Comment1 ""
Comment2 ""
Comment3 ""
Comment4 ""
$EndDescr
Text HLabel 7350 3050 0    50   Input ~ 0
Vin12V0
Text HLabel 2900 4700 0    50   Input ~ 0
GND
Text HLabel 3150 3250 2    50   Output ~ 0
Vout6V3
Wire Wire Line
	5750 4700 5850 4700
Wire Wire Line
	6450 4050 6350 4050
Wire Wire Line
	6350 4150 6450 4150
Wire Wire Line
	6450 4150 6450 4050
Connection ~ 6150 4700
Wire Wire Line
	6150 4700 6450 4700
Connection ~ 6050 4700
Wire Wire Line
	6050 4700 6150 4700
Connection ~ 5950 4700
Wire Wire Line
	5950 4700 6050 4700
Connection ~ 5850 4700
Wire Wire Line
	5850 4700 5950 4700
Connection ~ 5750 4700
Wire Wire Line
	5450 3950 5400 3950
$Comp
L Device:R R15
U 1 1 5E2F1F15
P 5050 4150
F 0 "R15" H 5120 4196 50  0000 L CNN
F 1 "NC" H 5120 4105 50  0000 L CNN
F 2 "Resistor_SMD:R_0603_1608Metric" V 4980 4150 50  0001 C CNN
F 3 "" H 5050 4150 50  0001 C CNN
	1    5050 4150
	1    0    0    -1  
$EndComp
$Comp
L Device:C C14
U 1 1 5E2F3721
P 5050 4500
F 0 "C14" H 5165 4546 50  0000 L CNN
F 1 "NC" H 5165 4455 50  0000 L CNN
F 2 "Capacitor_SMD:C_0603_1608Metric" H 5088 4350 50  0001 C CNN
F 3 "" H 5050 4500 50  0001 C CNN
	1    5050 4500
	1    0    0    -1  
$EndComp
Wire Wire Line
	6450 4150 6450 4700
Connection ~ 6450 4150
Wire Wire Line
	5750 4350 5750 4700
Wire Wire Line
	5850 4350 5850 4700
Wire Wire Line
	5950 4350 5950 4700
Wire Wire Line
	6050 4350 6050 4700
Wire Wire Line
	6150 4350 6150 4700
Wire Wire Line
	5650 4350 5650 4400
Wire Wire Line
	5650 4400 5400 4400
Wire Wire Line
	5400 4400 5400 4150
Wire Wire Line
	5400 4050 5450 4050
Wire Wire Line
	5450 4150 5400 4150
Connection ~ 5400 4150
Wire Wire Line
	5400 4150 5400 4050
Wire Wire Line
	5400 4050 5400 3950
Connection ~ 5400 4050
$Comp
L Device:L L2
U 1 1 5E2FE050
P 4700 3950
F 0 "L2" V 4650 4050 50  0000 C CNN
F 1 "3.3u" V 4650 3900 50  0000 C CNN
F 2 "000_footprint:L_Murata_FDVE1040" H 4700 3950 50  0001 C CNN
F 3 "" H 4700 3950 50  0001 C CNN
F 4 "Murata" V 4700 3950 50  0001 C CNN "Manufacturer"
F 5 "FDVE1040-H-3R3M=P3" V 4700 3950 50  0001 C CNN "Part Number"
	1    4700 3950
	0    -1   -1   0   
$EndComp
$Comp
L Device:C C11
U 1 1 5E301AD5
P 4350 4300
F 0 "C11" H 4400 4400 50  0000 L CNN
F 1 "NC" H 4400 4200 50  0000 L CNN
F 2 "Capacitor_SMD:C_1210_3225Metric" H 4388 4150 50  0001 C CNN
F 3 "" H 4350 4300 50  0001 C CNN
	1    4350 4300
	1    0    0    -1  
$EndComp
$Comp
L Device:C C10
U 1 1 5E301F86
P 4100 4300
F 0 "C10" H 4150 4400 50  0000 L CNN
F 1 "47u" H 4150 4200 50  0000 L CNN
F 2 "Capacitor_SMD:C_1210_3225Metric" H 4138 4150 50  0001 C CNN
F 3 "" H 4100 4300 50  0001 C CNN
F 4 "Murata" H 4100 4300 50  0001 C CNN "Manufacturer"
F 5 "GRM32ER70J476KE20L" H 4100 4300 50  0001 C CNN "Part Number"
	1    4100 4300
	1    0    0    -1  
$EndComp
$Comp
L Device:C C9
U 1 1 5E30216C
P 3850 4300
F 0 "C9" H 3900 4400 50  0000 L CNN
F 1 "47u" H 3900 4200 50  0000 L CNN
F 2 "Capacitor_SMD:C_1210_3225Metric" H 3888 4150 50  0001 C CNN
F 3 "" H 3850 4300 50  0001 C CNN
F 4 "Murata" H 3850 4300 50  0001 C CNN "Manufacturer"
F 5 "GRM32ER70J476KE20L" H 3850 4300 50  0001 C CNN "Part Number"
	1    3850 4300
	1    0    0    -1  
$EndComp
Wire Wire Line
	4350 3950 4350 4150
Wire Wire Line
	4100 4150 4100 3950
Wire Wire Line
	4100 3950 4350 3950
Wire Wire Line
	4100 3950 3850 3950
Wire Wire Line
	3850 3950 3850 4150
Connection ~ 4100 3950
Wire Wire Line
	3850 4450 3850 4700
Wire Wire Line
	3850 4700 4100 4700
Wire Wire Line
	4100 4450 4100 4700
Connection ~ 4100 4700
Wire Wire Line
	4100 4700 4350 4700
Wire Wire Line
	4350 4450 4350 4700
Connection ~ 4350 4700
$Comp
L Device:C C15
U 1 1 5E317081
P 5200 3750
F 0 "C15" V 5150 3650 50  0000 C CNN
F 1 "1u" V 5150 3850 50  0000 C CNN
F 2 "Capacitor_SMD:C_0603_1608Metric" H 5238 3600 50  0001 C CNN
F 3 "" H 5200 3750 50  0001 C CNN
F 4 "Murata" V 5200 3750 50  0001 C CNN "Manufacturer"
F 5 "GRM188R61C105KA12D" V 5200 3750 50  0001 C CNN "Part Number"
	1    5200 3750
	0    1    1    0   
$EndComp
Wire Wire Line
	5450 3750 5400 3750
Wire Wire Line
	5050 3750 5000 3750
Connection ~ 3850 4700
Wire Wire Line
	5000 3850 5450 3850
Wire Wire Line
	4350 4700 5050 4700
Wire Wire Line
	4550 3950 4350 3950
Connection ~ 4350 3950
Wire Wire Line
	4850 3950 5050 3950
Wire Wire Line
	5050 3950 5050 4000
Wire Wire Line
	5050 4300 5050 4350
Wire Wire Line
	5050 4650 5050 4700
Connection ~ 5050 4700
Wire Wire Line
	5050 4700 5750 4700
Wire Wire Line
	5400 3950 5050 3950
Connection ~ 5400 3950
Connection ~ 5050 3950
Wire Wire Line
	5000 3750 5000 3850
$Comp
L Device:C C12
U 1 1 5E33718C
P 4650 3550
F 0 "C12" V 4600 3450 50  0000 C CNN
F 1 "1500p" V 4600 3650 50  0000 C CNN
F 2 "Capacitor_SMD:C_0603_1608Metric" H 4688 3400 50  0001 C CNN
F 3 "" H 4650 3550 50  0001 C CNN
F 4 "Murata" V 4650 3550 50  0001 C CNN "Manufacturer"
F 5 "GRM188R72A152KA01D" V 4650 3550 50  0001 C CNN "Part Number"
	1    4650 3550
	0    1    1    0   
$EndComp
$Comp
L Device:C C13
U 1 1 5E337BB8
P 4900 3300
F 0 "C13" V 4850 3200 50  0000 C CNN
F 1 "4.7p" V 4850 3400 50  0000 C CNN
F 2 "Capacitor_SMD:C_0603_1608Metric" H 4938 3150 50  0001 C CNN
F 3 "" H 4900 3300 50  0001 C CNN
F 4 "Murata" V 4900 3300 50  0001 C CNN "Manufacturer"
F 5 "GRM1885C1H4R7CA01D" V 4900 3300 50  0001 C CNN "Part Number"
	1    4900 3300
	0    1    1    0   
$EndComp
$Comp
L Device:R R16
U 1 1 5E337F8E
P 5100 3550
F 0 "R16" V 5000 3450 50  0000 C CNN
F 1 "31.6k" V 5000 3650 50  0000 C CNN
F 2 "Resistor_SMD:R_0603_1608Metric" V 5030 3550 50  0001 C CNN
F 3 "" H 5100 3550 50  0001 C CNN
F 4 "Vishay Dale" V 5100 3550 50  0001 C CNN "Manufacturer"
F 5 "CRCW060331K6FKEA" V 5100 3550 50  0001 C CNN "Part Number"
	1    5100 3550
	0    1    1    0   
$EndComp
Wire Wire Line
	5450 3550 5300 3550
Wire Wire Line
	4950 3550 4800 3550
Wire Wire Line
	5050 3300 5300 3300
Wire Wire Line
	5300 3300 5300 3550
Connection ~ 5300 3550
Wire Wire Line
	5300 3550 5250 3550
Wire Wire Line
	4750 3300 4400 3300
Wire Wire Line
	4400 3300 4400 3550
Wire Wire Line
	4400 3550 4500 3550
$Comp
L Device:R R12
U 1 1 5E345C75
P 3400 3800
F 0 "R12" V 3350 3700 50  0000 C CNN
F 1 "NC" V 3350 3900 50  0000 C CNN
F 2 "Resistor_SMD:R_0603_1608Metric" V 3330 3800 50  0001 C CNN
F 3 "" H 3400 3800 50  0001 C CNN
	1    3400 3800
	0    1    1    0   
$EndComp
$Comp
L Device:C C8
U 1 1 5E345EBA
P 3800 3800
F 0 "C8" V 3750 3700 50  0000 C CNN
F 1 "NC" V 3750 3900 50  0000 C CNN
F 2 "Capacitor_SMD:C_0603_1608Metric" H 3838 3650 50  0001 C CNN
F 3 "" H 3800 3800 50  0001 C CNN
	1    3800 3800
	0    1    1    0   
$EndComp
$Comp
L Device:R R13
U 1 1 5E35249B
P 3600 3650
F 0 "R13" V 3500 3550 50  0000 C CNN
F 1 "21k" V 3500 3750 50  0000 C CNN
F 2 "Resistor_SMD:R_0603_1608Metric" V 3530 3650 50  0001 C CNN
F 3 "" H 3600 3650 50  0001 C CNN
F 4 "Vishay Dale" V 3600 3650 50  0001 C CNN "Manufacturer"
F 5 "CRCW060321K0FKEA" V 3600 3650 50  0001 C CNN "Part Number"
	1    3600 3650
	0    1    1    0   
$EndComp
Wire Wire Line
	3750 3650 4050 3650
Wire Wire Line
	3650 3800 3550 3800
Wire Wire Line
	3450 3650 3150 3650
Wire Wire Line
	3150 3650 3150 3800
Wire Wire Line
	3150 3800 3250 3800
Wire Wire Line
	3850 3950 3150 3950
Wire Wire Line
	3150 3950 3150 3800
Connection ~ 3850 3950
Connection ~ 3150 3800
Wire Wire Line
	3950 3800 4050 3800
Wire Wire Line
	4050 3800 4050 3650
Connection ~ 4050 3650
Wire Wire Line
	4050 3650 5450 3650
$Comp
L Device:R R14
U 1 1 5E35EA84
P 4050 3400
F 0 "R14" H 4200 3350 50  0000 C CNN
F 1 "2.21k" H 4200 3450 50  0000 C CNN
F 2 "Resistor_SMD:R_0603_1608Metric" V 3980 3400 50  0001 C CNN
F 3 "" H 4050 3400 50  0001 C CNN
F 4 "Vishay Dale" V 4050 3400 50  0001 C CNN "Manufacturer"
F 5 "CRCW06032K21FKEA" V 4050 3400 50  0001 C CNN "Part Number"
	1    4050 3400
	-1   0    0    1   
$EndComp
Wire Wire Line
	4050 3550 4050 3650
$Comp
L Device:R R17
U 1 1 5E368D9E
P 5800 2700
F 0 "R17" V 5700 2600 50  0000 C CNN
F 1 "100k" V 5700 2800 50  0000 C CNN
F 2 "Resistor_SMD:R_0603_1608Metric" V 5730 2700 50  0001 C CNN
F 3 "" H 5800 2700 50  0001 C CNN
F 4 "Vishay Dale" V 5800 2700 50  0001 C CNN "Manufacturer"
F 5 "CRCW0603100KFKEA" V 5800 2700 50  0001 C CNN "Part Number"
	1    5800 2700
	0    1    1    0   
$EndComp
Wire Wire Line
	5950 2700 5950 3350
Connection ~ 5400 3750
Wire Wire Line
	5400 3750 5350 3750
$Comp
L Device:C C16
U 1 1 5E36F59F
P 5500 3050
F 0 "C16" H 5550 3150 50  0000 L CNN
F 1 "22n" H 5550 2950 50  0000 L CNN
F 2 "Capacitor_SMD:C_0603_1608Metric" H 5538 2900 50  0001 C CNN
F 3 "" H 5500 3050 50  0001 C CNN
F 4 "Murata" H 5500 3050 50  0001 C CNN "Manufacturer"
F 5 "GRM188R72A223KAC4D" H 5500 3050 50  0001 C CNN "Part Number"
	1    5500 3050
	1    0    0    -1  
$EndComp
$Comp
L Device:R R18
U 1 1 5E36FB82
P 5850 3050
F 0 "R18" H 5950 2950 50  0000 C CNN
F 1 "100k" H 5900 3050 50  0000 C CNN
F 2 "Resistor_SMD:R_0603_1608Metric" V 5780 3050 50  0001 C CNN
F 3 "" H 5850 3050 50  0001 C CNN
F 4 "Vishay Dale" V 5850 3050 50  0001 C CNN "Manufacturer"
F 5 "CRCW0603100KFKEA" V 5850 3050 50  0001 C CNN "Part Number"
	1    5850 3050
	-1   0    0    1   
$EndComp
Wire Wire Line
	5850 3350 5850 3200
Wire Wire Line
	5500 2900 5500 2850
Wire Wire Line
	5850 2900 5850 2850
Wire Wire Line
	5500 2850 5850 2850
Wire Wire Line
	5500 3200 5500 3350
Wire Wire Line
	5500 3350 5650 3350
$Comp
L Device:C C17
U 1 1 5E389A91
P 6600 3850
F 0 "C17" V 6550 3750 50  0000 C CNN
F 1 "0.1u" V 6550 3950 50  0000 C CNN
F 2 "Capacitor_SMD:C_0603_1608Metric" H 6638 3700 50  0001 C CNN
F 3 "" H 6600 3850 50  0001 C CNN
F 4 "Murata" V 6600 3850 50  0001 C CNN "Manufacturer"
F 5 "GRM188R72A104KA35D" V 6600 3850 50  0001 C CNN "Part Number"
	1    6600 3850
	0    1    1    0   
$EndComp
Wire Wire Line
	6350 3850 6450 3850
Wire Wire Line
	6750 3850 6800 3850
Wire Wire Line
	6800 3850 6800 3950
Wire Wire Line
	6800 3950 6350 3950
$Comp
L Device:C C18
U 1 1 5E38EC1F
P 7050 3500
F 0 "C18" H 7165 3546 50  0000 L CNN
F 1 "10u" H 7165 3455 50  0000 L CNN
F 2 "Capacitor_SMD:C_1206_3216Metric" H 7088 3350 50  0001 C CNN
F 3 "" H 7050 3500 50  0001 C CNN
F 4 "Murata" H 7050 3500 50  0001 C CNN "Manufacturer"
F 5 "GRM31MR61E106MA12L" H 7050 3500 50  0001 C CNN "Part Number"
	1    7050 3500
	1    0    0    -1  
$EndComp
$Comp
L Device:C C19
U 1 1 5E38F72C
P 7350 3500
F 0 "C19" H 7465 3546 50  0000 L CNN
F 1 "10u" H 7465 3455 50  0000 L CNN
F 2 "Capacitor_SMD:C_1206_3216Metric" H 7388 3350 50  0001 C CNN
F 3 "" H 7350 3500 50  0001 C CNN
F 4 "Murata" H 7350 3500 50  0001 C CNN "Manufacturer"
F 5 "GRM31MR61E106MA12L" H 7350 3500 50  0001 C CNN "Part Number"
	1    7350 3500
	1    0    0    -1  
$EndComp
Wire Wire Line
	6150 3350 6150 3300
Wire Wire Line
	6150 3300 6550 3300
Wire Wire Line
	7050 3300 7050 3350
Wire Wire Line
	7050 3300 7350 3300
Wire Wire Line
	7350 3300 7350 3350
Connection ~ 7050 3300
Wire Wire Line
	7050 3750 7050 3650
Wire Wire Line
	7350 3750 7350 3650
Wire Wire Line
	7050 3750 7350 3750
Wire Wire Line
	6350 3550 6550 3550
Wire Wire Line
	6550 3550 6550 3300
Connection ~ 6550 3300
Wire Wire Line
	6550 3300 7050 3300
Wire Wire Line
	6350 3650 6550 3650
Wire Wire Line
	6550 3650 6550 3550
Connection ~ 6550 3550
Wire Wire Line
	6350 3750 6550 3750
Wire Wire Line
	6550 3750 6550 3650
Connection ~ 6550 3650
Wire Wire Line
	3150 3250 3150 3650
Connection ~ 3150 3650
Wire Wire Line
	7350 3050 7350 3300
Connection ~ 7350 3300
Wire Wire Line
	6150 3300 6050 3300
Wire Wire Line
	6050 3300 6050 3350
Connection ~ 6150 3300
Wire Wire Line
	5650 4400 6800 4400
Wire Wire Line
	6800 4400 6800 3950
Connection ~ 5650 4400
Connection ~ 6800 3950
Wire Wire Line
	4050 2700 4250 2700
Wire Wire Line
	4600 2700 4600 2750
Wire Wire Line
	4050 2700 4050 3250
Wire Wire Line
	4400 3300 4400 2700
Connection ~ 4400 3300
Connection ~ 4400 2700
Wire Wire Line
	4400 2700 4600 2700
Wire Wire Line
	5000 3850 4250 3850
Wire Wire Line
	4250 3850 4250 2700
Connection ~ 5000 3850
Connection ~ 4250 2700
Wire Wire Line
	4250 2700 4400 2700
Wire Wire Line
	5500 2850 4750 2850
Wire Wire Line
	4750 2850 4750 2700
Wire Wire Line
	4750 2700 4600 2700
Connection ~ 5500 2850
Connection ~ 4600 2700
Wire Wire Line
	7050 3750 7050 4700
Wire Wire Line
	7050 4700 6450 4700
Connection ~ 7050 3750
Connection ~ 6450 4700
Wire Wire Line
	2900 4700 3850 4700
$Comp
L power:GND #PWR023
U 1 1 5E2B784A
P 4600 2750
F 0 "#PWR023" H 4600 2500 50  0001 C CNN
F 1 "GND" H 4605 2577 50  0000 C CNN
F 2 "" H 4600 2750 50  0001 C CNN
F 3 "" H 4600 2750 50  0001 C CNN
	1    4600 2750
	1    0    0    -1  
$EndComp
$Comp
L Device:R R31
U 1 1 5E4D335E
P 5400 2700
F 0 "R31" V 5300 2600 50  0000 C CNN
F 1 "0" V 5300 2800 50  0000 C CNN
F 2 "Resistor_SMD:R_1206_3216Metric" V 5330 2700 50  0001 C CNN
F 3 "" H 5400 2700 50  0001 C CNN
F 4 "Yageo" V 5400 2700 50  0001 C CNN "Manufacturer"
F 5 "RC1206JR-070RL" V 5400 2700 50  0001 C CNN "Part Number"
	1    5400 2700
	0    1    1    0   
$EndComp
Wire Wire Line
	5550 2700 5650 2700
Wire Wire Line
	5400 3200 5400 3750
Wire Wire Line
	5250 2700 5200 2700
Wire Wire Line
	5200 2700 5200 3200
Wire Wire Line
	5200 3200 5400 3200
$Comp
L 000_symbol:ADP2384 U3
U 1 1 61CDD993
P 5900 3850
F 0 "U3" H 5900 3850 50  0000 C CNN
F 1 "ADP2384" H 6350 4300 50  0000 C CNN
F 2 "000_footprint:ADP2384_LFCSP_WQ-24-2EP_4x4mm" H 5900 3850 50  0001 C CNN
F 3 "" H 5900 3850 50  0001 C CNN
F 4 "Analog Devices" H 5900 3850 50  0001 C CNN "Manufacturer"
F 5 "ADP2384ACPZN-R7" H 5900 3850 50  0001 C CNN "Part Number"
	1    5900 3850
	1    0    0    -1  
$EndComp
$EndSCHEMATC
