EESchema Schematic File Version 4
EELAYER 30 0
EELAYER END
$Descr A4 11693 8268
encoding utf-8
Sheet 1 7
Title ""
Date ""
Rev ""
Comp ""
Comment1 ""
Comment2 ""
Comment3 ""
Comment4 ""
$EndDescr
$Comp
L Mechanical:MountingHole H4
U 1 1 5CF39C94
P 1600 7600
F 0 "H4" H 1700 7646 50  0000 L CNN
F 1 "MountingHole" H 1700 7555 50  0000 L CNN
F 2 "MountingHole:MountingHole_3.2mm_M3" H 1600 7600 50  0001 C CNN
F 3 "" H 1600 7600 50  0001 C CNN
	1    1600 7600
	1    0    0    -1  
$EndComp
$Comp
L Mechanical:MountingHole H3
U 1 1 5CF398A4
P 1300 7600
F 0 "H3" H 1400 7646 50  0000 L CNN
F 1 "MountingHole" H 1400 7555 50  0000 L CNN
F 2 "MountingHole:MountingHole_3.2mm_M3" H 1300 7600 50  0001 C CNN
F 3 "" H 1300 7600 50  0001 C CNN
	1    1300 7600
	1    0    0    -1  
$EndComp
$Comp
L Mechanical:MountingHole H2
U 1 1 5CF395B1
P 1000 7600
F 0 "H2" H 1100 7646 50  0000 L CNN
F 1 "MountingHole" H 1100 7555 50  0000 L CNN
F 2 "MountingHole:MountingHole_3.2mm_M3" H 1000 7600 50  0001 C CNN
F 3 "" H 1000 7600 50  0001 C CNN
	1    1000 7600
	1    0    0    -1  
$EndComp
$Comp
L Mechanical:MountingHole H1
U 1 1 5CF390EE
P 700 7600
F 0 "H1" H 800 7646 50  0000 L CNN
F 1 "MountingHole" H 800 7555 50  0000 L CNN
F 2 "MountingHole:MountingHole_3.2mm_M3" H 700 7600 50  0001 C CNN
F 3 "" H 700 7600 50  0001 C CNN
	1    700  7600
	1    0    0    -1  
$EndComp
Wire Wire Line
	2800 2600 2950 2600
$Comp
L dk_Barrel-Power-Connectors:PJ-202A J1
U 1 1 5E18AB91
P 800 1250
F 0 "J1" H 733 1475 50  0000 C CNN
F 1 "PJ-202A" H 733 1384 50  0000 C CNN
F 2 "digikey-footprints:Barrel_Jack_5.5mmODx2.1mmID_PJ-202A" H 1000 1450 60  0001 L CNN
F 3 "https://www.cui.com/product/resource/digikeypdf/pj-202a.pdf" H 1000 1550 60  0001 L CNN
F 4 "CUI Devices" H 1000 2350 60  0001 L CNN "Manufacturer"
F 5 "PJ-202A" H 1000 1750 60  0001 L CNN "Part Number"
	1    800  1250
	1    0    0    -1  
$EndComp
Wire Wire Line
	900  1350 900  1400
Wire Wire Line
	2750 1400 2950 1400
$Sheet
S 5100 1200 750  350 
U 5DF9BF76
F0 "DCDC15V5_15V0" 50
F1 "DCDC15V5_15V0_LP38798.sch" 50
F2 "Vin15V5" I L 5100 1300 50 
F3 "GND" I L 5100 1450 50 
F4 "Vout15V0" O R 5850 1350 50 
$EndSheet
$Sheet
S 2950 1150 750  350 
U 5E23136E
F0 "DCDC12V0_15V5" 50
F1 "DCDC12V0_15V5_LMR62014.sch" 50
F2 "Vin12V0" I L 2950 1250 50 
F3 "GND" I L 2950 1400 50 
F4 "Vout15V5" O R 3700 1300 50 
$EndSheet
Wire Wire Line
	2200 2450 2950 2450
$Sheet
S 2950 2350 750  350 
U 5E194F27
F0 "DCDC12V0_6V3" 50
F1 "DCDC12V0_6V3_ADP2384.sch" 50
F2 "Vin12V0" I L 2950 2450 50 
F3 "GND" I L 2950 2600 50 
F4 "Vout6V3" O R 3700 2500 50 
$EndSheet
Wire Wire Line
	6300 5450 6450 5450
$Sheet
S 6450 5200 750  350 
U 5E2B203C
F0 "DCDC12V0_5V0" 50
F1 "DCDC12V0_5V0_ADP2384.sch" 50
F2 "Vin12V0" I L 6450 5300 50 
F3 "GND" I L 6450 5450 50 
F4 "Vout5V0" O R 7200 5350 50 
$EndSheet
Wire Wire Line
	8950 5350 8900 5350
Wire Wire Line
	8950 5350 8950 5450
Wire Wire Line
	8950 5450 8900 5450
Wire Wire Line
	8950 5450 8950 5550
Wire Wire Line
	8950 5550 8900 5550
Connection ~ 8950 5450
Wire Wire Line
	8400 5450 8350 5450
Wire Wire Line
	8350 5450 8350 5350
Connection ~ 8350 5350
Wire Wire Line
	8350 5350 8400 5350
Wire Wire Line
	8400 5550 8350 5550
Wire Wire Line
	8350 5550 8350 5450
Connection ~ 8350 5450
Wire Wire Line
	8350 5550 8350 5650
Connection ~ 8350 5550
Wire Wire Line
	7050 3950 7100 3950
Wire Wire Line
	7050 3950 7050 4050
Wire Wire Line
	7050 3750 7050 3650
Wire Wire Line
	7050 3750 7100 3750
$Comp
L Device:R R1
U 1 1 5E188BF5
P 1200 1450
F 0 "R1" V 1300 1500 50  0000 L CNN
F 1 "10k" V 1300 1300 50  0000 L CNN
F 2 "Resistor_SMD:R_0603_1608Metric" V 1130 1450 50  0001 C CNN
F 3 "" H 1200 1450 50  0001 C CNN
F 4 "Yageo" H 1200 1450 50  0001 C CNN "Manufacturer"
F 5 "RC0603FR-0710KL" H 1200 1450 50  0001 C CNN "Part Number"
	1    1200 1450
	1    0    0    -1  
$EndComp
Wire Wire Line
	8800 2400 8850 2400
Connection ~ 8850 2400
Wire Wire Line
	8850 2400 8850 2500
Wire Wire Line
	8800 2300 8850 2300
Connection ~ 8850 2300
Wire Wire Line
	8850 2300 8850 2400
Wire Wire Line
	8800 2200 8850 2200
Connection ~ 8850 2200
Wire Wire Line
	8850 2200 8850 2300
Wire Wire Line
	8800 2100 8850 2100
Connection ~ 8850 2100
Wire Wire Line
	8850 2100 8850 2200
Wire Wire Line
	8800 2000 8850 2000
Connection ~ 8850 2000
Wire Wire Line
	8850 2000 8850 2100
Wire Wire Line
	8800 1900 8850 1900
Connection ~ 8850 1900
Wire Wire Line
	8850 1900 8850 2000
Wire Wire Line
	8800 1800 8850 1800
Connection ~ 8850 1800
Wire Wire Line
	8850 1800 8850 1900
Wire Wire Line
	8800 1700 8850 1700
Connection ~ 8850 1700
Wire Wire Line
	8850 1700 8850 1800
Wire Wire Line
	8800 1600 8850 1600
Wire Wire Line
	8850 1600 8850 1700
Wire Wire Line
	8250 2500 8250 2400
Wire Wire Line
	8300 1600 8250 1600
Wire Wire Line
	8300 1700 8250 1700
Connection ~ 8250 1700
Wire Wire Line
	8250 1700 8250 1600
Wire Wire Line
	8300 1800 8250 1800
Connection ~ 8250 1800
Wire Wire Line
	8250 1800 8250 1700
Wire Wire Line
	8300 1900 8250 1900
Connection ~ 8250 1900
Wire Wire Line
	8250 1900 8250 1800
Wire Wire Line
	8300 2000 8250 2000
Connection ~ 8250 2000
Wire Wire Line
	8250 2000 8250 1900
Wire Wire Line
	8300 2100 8250 2100
Connection ~ 8250 2100
Wire Wire Line
	8250 2100 8250 2000
Wire Wire Line
	8300 2300 8250 2300
Connection ~ 8250 2300
Wire Wire Line
	8250 2300 8250 2200
Wire Wire Line
	8300 2400 8250 2400
Connection ~ 8250 2400
Wire Wire Line
	8250 2400 8250 2300
Wire Wire Line
	8300 2200 8250 2200
Connection ~ 8250 2200
Wire Wire Line
	8250 2200 8250 2100
Wire Wire Line
	8400 5650 8350 5650
Wire Wire Line
	8400 5750 8350 5750
Wire Wire Line
	8350 5750 8350 5650
Connection ~ 8350 5650
Wire Wire Line
	8900 5750 8950 5750
Wire Wire Line
	8950 5750 8950 5650
Connection ~ 8950 5550
Wire Wire Line
	8900 5650 8950 5650
Connection ~ 8950 5650
Wire Wire Line
	8950 5650 8950 5550
Wire Wire Line
	1150 6350 1100 6350
Wire Wire Line
	1100 6350 1100 6250
Wire Wire Line
	1100 6250 1150 6250
Wire Wire Line
	1150 6450 1100 6450
Wire Wire Line
	1100 6450 1100 6350
Connection ~ 1100 6350
Wire Wire Line
	1150 6550 1100 6550
Wire Wire Line
	1100 6550 1100 6450
Connection ~ 1100 6450
Wire Wire Line
	1650 6250 1700 6250
Wire Wire Line
	1700 6250 1700 6350
Wire Wire Line
	1700 6550 1650 6550
Wire Wire Line
	1650 6450 1700 6450
Connection ~ 1700 6450
Wire Wire Line
	1700 6450 1700 6550
Wire Wire Line
	1650 6350 1700 6350
Connection ~ 1700 6350
Wire Wire Line
	1700 6350 1700 6450
$Comp
L dk_LED-Indication-Discrete:LTST-C190KRKT D1
U 1 1 5E2F0F7B
P 1200 1850
F 0 "D1" H 1150 2187 60  0000 C CNN
F 1 "LTST-C190CKT" H 1150 2081 60  0000 C CNN
F 2 "000_footprint:LED_0603" H 1400 2050 60  0001 L CNN
F 3 "" H 1400 2150 60  0001 L CNN
F 4 "Lite-On Inc." H 1400 2950 60  0001 L CNN "Manufacturer"
F 5 "LTST-C190CKT" H 1400 2350 60  0001 L CNN "Part Number"
	1    1200 1850
	0    1    1    0   
$EndComp
$Comp
L Device:R R2
U 1 1 5E375EE8
P 4400 1500
F 0 "R2" V 4500 1550 50  0000 L CNN
F 1 "10k" V 4500 1350 50  0000 L CNN
F 2 "Resistor_SMD:R_0603_1608Metric" V 4330 1500 50  0001 C CNN
F 3 "" H 4400 1500 50  0001 C CNN
F 4 "Yageo" H 4400 1500 50  0001 C CNN "Manufacturer"
F 5 "RC0603FR-0710KL" H 4400 1500 50  0001 C CNN "Part Number"
	1    4400 1500
	1    0    0    -1  
$EndComp
Wire Wire Line
	5100 1450 4950 1450
$Comp
L dk_LED-Indication-Discrete:LTST-C190KRKT D2
U 1 1 5E3811ED
P 4400 1900
F 0 "D2" H 4350 2237 60  0000 C CNN
F 1 "LTST-C190CKT" H 4350 2131 60  0000 C CNN
F 2 "000_footprint:LED_0603" H 4600 2100 60  0001 L CNN
F 3 "" H 4600 2200 60  0001 L CNN
F 4 "Lite-On Inc." H 4600 3000 60  0001 L CNN "Manufacturer"
F 5 "LTST-C190CKT" H 4600 2400 60  0001 L CNN "Part Number"
	1    4400 1900
	0    1    1    0   
$EndComp
$Comp
L Device:R R4
U 1 1 5E38233B
P 6500 1550
F 0 "R4" V 6600 1600 50  0000 L CNN
F 1 "10k" V 6600 1400 50  0000 L CNN
F 2 "Resistor_SMD:R_0603_1608Metric" V 6430 1550 50  0001 C CNN
F 3 "" H 6500 1550 50  0001 C CNN
F 4 "Yageo" H 6500 1550 50  0001 C CNN "Manufacturer"
F 5 "RC0603FR-0710KL" H 6500 1550 50  0001 C CNN "Part Number"
	1    6500 1550
	1    0    0    -1  
$EndComp
$Comp
L dk_LED-Indication-Discrete:LTST-C190KRKT D4
U 1 1 5E3826E0
P 6500 1950
F 0 "D4" H 6450 2287 60  0000 C CNN
F 1 "LTST-C190CKT" H 6450 2181 60  0000 C CNN
F 2 "000_footprint:LED_0603" H 6700 2150 60  0001 L CNN
F 3 "" H 6700 2250 60  0001 L CNN
F 4 "Lite-On Inc." H 6700 3050 60  0001 L CNN "Manufacturer"
F 5 "LTST-C190CKT" H 6700 2450 60  0001 L CNN "Part Number"
	1    6500 1950
	0    1    1    0   
$EndComp
$Comp
L Device:R R5
U 1 1 5E384277
P 5200 2700
F 0 "R5" V 5300 2750 50  0000 L CNN
F 1 "10k" V 5300 2550 50  0000 L CNN
F 2 "Resistor_SMD:R_0603_1608Metric" V 5130 2700 50  0001 C CNN
F 3 "" H 5200 2700 50  0001 C CNN
F 4 "Yageo" H 5200 2700 50  0001 C CNN "Manufacturer"
F 5 "RC0603FR-0710KL" H 5200 2700 50  0001 C CNN "Part Number"
	1    5200 2700
	1    0    0    -1  
$EndComp
$Comp
L dk_LED-Indication-Discrete:LTST-C190KRKT D5
U 1 1 5E384709
P 5200 3100
F 0 "D5" H 5150 3437 60  0000 C CNN
F 1 "LTST-C190CKT" H 5150 3331 60  0000 C CNN
F 2 "000_footprint:LED_0603" H 5400 3300 60  0001 L CNN
F 3 "" H 5400 3400 60  0001 L CNN
F 4 "Lite-On Inc." H 5400 4200 60  0001 L CNN "Manufacturer"
F 5 "LTST-C190CKT" H 5400 3600 60  0001 L CNN "Part Number"
	1    5200 3100
	0    1    1    0   
$EndComp
$Comp
L Device:R R6
U 1 1 5E3857CE
P 6200 4250
F 0 "R6" V 6300 4300 50  0000 L CNN
F 1 "10k" V 6300 4100 50  0000 L CNN
F 2 "Resistor_SMD:R_0603_1608Metric" V 6130 4250 50  0001 C CNN
F 3 "" H 6200 4250 50  0001 C CNN
F 4 "Yageo" H 6200 4250 50  0001 C CNN "Manufacturer"
F 5 "RC0603FR-0710KL" H 6200 4250 50  0001 C CNN "Part Number"
	1    6200 4250
	1    0    0    -1  
$EndComp
$Comp
L Device:R R7
U 1 1 5E386157
P 6750 4250
F 0 "R7" V 6850 4300 50  0000 L CNN
F 1 "10k" V 6850 4100 50  0000 L CNN
F 2 "Resistor_SMD:R_0603_1608Metric" V 6680 4250 50  0001 C CNN
F 3 "" H 6750 4250 50  0001 C CNN
F 4 "Yageo" H 6750 4250 50  0001 C CNN "Manufacturer"
F 5 "RC0603FR-0710KL" H 6750 4250 50  0001 C CNN "Part Number"
	1    6750 4250
	1    0    0    -1  
$EndComp
Wire Wire Line
	4950 3900 5100 3900
$Comp
L Device:R R3
U 1 1 5E3AC94E
P 7900 5550
F 0 "R3" V 8000 5600 50  0000 L CNN
F 1 "10k" V 8000 5400 50  0000 L CNN
F 2 "Resistor_SMD:R_0603_1608Metric" V 7830 5550 50  0001 C CNN
F 3 "" H 7900 5550 50  0001 C CNN
F 4 "Yageo" H 7900 5550 50  0001 C CNN "Manufacturer"
F 5 "RC0603FR-0710KL" H 7900 5550 50  0001 C CNN "Part Number"
	1    7900 5550
	1    0    0    -1  
$EndComp
$Comp
L dk_LED-Indication-Discrete:LTST-C190KRKT D3
U 1 1 5E3AD0E5
P 7900 5950
F 0 "D3" H 7850 6287 60  0000 C CNN
F 1 "LTST-C190CKT" H 7850 6181 60  0000 C CNN
F 2 "000_footprint:LED_0603" H 8100 6150 60  0001 L CNN
F 3 "" H 8100 6250 60  0001 L CNN
F 4 "Lite-On Inc." H 8100 7050 60  0001 L CNN "Manufacturer"
F 5 "LTST-C190CKT" H 8100 6450 60  0001 L CNN "Part Number"
	1    7900 5950
	0    1    1    0   
$EndComp
Wire Wire Line
	3700 2500 5200 2500
Wire Wire Line
	5850 3900 6000 3900
Wire Wire Line
	6000 3900 6000 3950
Connection ~ 7050 3950
Connection ~ 7050 3750
Text Notes 750  7000 0    129  ~ 0
+12.0V
Text Notes 10650 5650 0    129  ~ 0
+5.0V
Text Notes 8600 4050 0    129  ~ 0
-5.0V
Text Notes 8600 3800 0    129  ~ 0
+5.0V
Text Notes 9900 2100 0    129  ~ 0
+6.3V
Text Notes 6950 1100 0    129  ~ 0
+15.0V
Text Notes 500  900  0    129  ~ 0
+12.0V
$Comp
L Connector_Generic:Conn_02x05_Top_Bottom J9
U 1 1 5E4E63F0
P 8700 5550
F 0 "J9" H 8750 5967 50  0000 C CNN
F 1 "Conn_02x05_Top_Bottom" H 8750 5876 50  0000 C CNN
F 2 "000_footprint:MOLEX_0039281103" H 8700 5550 50  0001 C CNN
F 3 "" H 8700 5550 50  0001 C CNN
F 4 "Molex" H 8700 5550 50  0001 C CNN "Manufacturer"
F 5 "0039281103" H 8700 5550 50  0001 C CNN "Part Number"
	1    8700 5550
	-1   0    0    -1  
$EndComp
Wire Wire Line
	900  1250 1200 1250
Wire Wire Line
	1200 1300 1200 1250
Connection ~ 1200 1250
Wire Wire Line
	1200 1600 1200 1650
$Comp
L power:GND #PWR02
U 1 1 5E237A72
P 1200 2000
F 0 "#PWR02" H 1200 1750 50  0001 C CNN
F 1 "GND" H 1205 1827 50  0000 C CNN
F 2 "" H 1200 2000 50  0001 C CNN
F 3 "" H 1200 2000 50  0001 C CNN
	1    1200 2000
	1    0    0    -1  
$EndComp
Wire Wire Line
	1200 1950 1200 2000
$Comp
L power:GND #PWR01
U 1 1 5E2446F9
P 950 1500
F 0 "#PWR01" H 950 1250 50  0001 C CNN
F 1 "GND" H 955 1327 50  0000 C CNN
F 2 "" H 950 1500 50  0001 C CNN
F 3 "" H 950 1500 50  0001 C CNN
	1    950  1500
	1    0    0    -1  
$EndComp
Wire Wire Line
	900  1400 950  1400
Wire Wire Line
	950  1400 950  1500
Connection ~ 900  1400
Wire Wire Line
	900  1400 900  1450
$Comp
L power:GND #PWR03
U 1 1 5E2ACBA7
P 2750 1400
F 0 "#PWR03" H 2750 1150 50  0001 C CNN
F 1 "GND" H 2750 1250 50  0000 C CNN
F 2 "" H 2750 1400 50  0001 C CNN
F 3 "" H 2750 1400 50  0001 C CNN
	1    2750 1400
	1    0    0    -1  
$EndComp
$Comp
L power:GND #PWR04
U 1 1 5E2AD769
P 2800 2600
F 0 "#PWR04" H 2800 2350 50  0001 C CNN
F 1 "GND" H 2800 2450 50  0000 C CNN
F 2 "" H 2800 2600 50  0001 C CNN
F 3 "" H 2800 2600 50  0001 C CNN
	1    2800 2600
	1    0    0    -1  
$EndComp
$Comp
L power:GND #PWR05
U 1 1 5E2AE7D4
P 6300 5450
F 0 "#PWR05" H 6300 5200 50  0001 C CNN
F 1 "GND" H 6300 5300 50  0000 C CNN
F 2 "" H 6300 5450 50  0001 C CNN
F 3 "" H 6300 5450 50  0001 C CNN
	1    6300 5450
	1    0    0    -1  
$EndComp
Wire Wire Line
	1200 1250 2200 1250
$Comp
L power:GND #PWR08
U 1 1 5E2E929D
P 4400 2050
F 0 "#PWR08" H 4400 1800 50  0001 C CNN
F 1 "GND" H 4400 1900 50  0000 C CNN
F 2 "" H 4400 2050 50  0001 C CNN
F 3 "" H 4400 2050 50  0001 C CNN
	1    4400 2050
	1    0    0    -1  
$EndComp
Wire Wire Line
	4400 1650 4400 1700
Wire Wire Line
	4400 2000 4400 2050
Wire Wire Line
	4400 1350 4400 1300
Connection ~ 4400 1300
Wire Wire Line
	4400 1300 5100 1300
$Comp
L power:GND #PWR013
U 1 1 5E34D546
P 5200 3250
F 0 "#PWR013" H 5200 3000 50  0001 C CNN
F 1 "GND" H 5200 3100 50  0000 C CNN
F 2 "" H 5200 3250 50  0001 C CNN
F 3 "" H 5200 3250 50  0001 C CNN
	1    5200 3250
	1    0    0    -1  
$EndComp
Wire Wire Line
	5200 2550 5200 2500
Wire Wire Line
	5200 2850 5200 2900
Wire Wire Line
	5200 3200 5200 3250
$Comp
L power:GND #PWR020
U 1 1 5E3A2852
P 8850 2550
F 0 "#PWR020" H 8850 2300 50  0001 C CNN
F 1 "GND" H 8950 2550 50  0000 C CNN
F 2 "" H 8850 2550 50  0001 C CNN
F 3 "" H 8850 2550 50  0001 C CNN
	1    8850 2550
	1    0    0    -1  
$EndComp
Wire Wire Line
	8850 2500 8800 2500
Wire Wire Line
	8250 2500 8300 2500
Wire Wire Line
	8850 2550 8850 2500
Connection ~ 8850 2500
$Comp
L power:GND #PWR010
U 1 1 5E4380DB
P 4950 1450
F 0 "#PWR010" H 4950 1200 50  0001 C CNN
F 1 "GND" H 4950 1300 50  0000 C CNN
F 2 "" H 4950 1450 50  0001 C CNN
F 3 "" H 4950 1450 50  0001 C CNN
	1    4950 1450
	1    0    0    -1  
$EndComp
$Comp
L power:GND #PWR011
U 1 1 5E4383BD
P 4950 3900
F 0 "#PWR011" H 4950 3650 50  0001 C CNN
F 1 "GND" H 4950 3750 50  0000 C CNN
F 2 "" H 4950 3900 50  0001 C CNN
F 3 "" H 4950 3900 50  0001 C CNN
	1    4950 3900
	1    0    0    -1  
$EndComp
Connection ~ 2200 1250
Wire Wire Line
	2200 1250 2950 1250
$Comp
L power:GND #PWR09
U 1 1 5E483603
P 7900 6100
F 0 "#PWR09" H 7900 5850 50  0001 C CNN
F 1 "GND" H 7900 5950 50  0000 C CNN
F 2 "" H 7900 6100 50  0001 C CNN
F 3 "" H 7900 6100 50  0001 C CNN
	1    7900 6100
	1    0    0    -1  
$EndComp
Wire Wire Line
	7900 6050 7900 6100
Wire Wire Line
	7900 5350 7900 5400
Wire Wire Line
	7900 5350 8350 5350
Connection ~ 7900 5350
Wire Wire Line
	7900 5700 7900 5750
$Comp
L power:GND #PWR015
U 1 1 5E50295C
P 6500 2100
F 0 "#PWR015" H 6500 1850 50  0001 C CNN
F 1 "GND" H 6500 1950 50  0000 C CNN
F 2 "" H 6500 2100 50  0001 C CNN
F 3 "" H 6500 2100 50  0001 C CNN
	1    6500 2100
	1    0    0    -1  
$EndComp
Wire Wire Line
	2200 1250 2200 2450
Connection ~ 2200 2450
Wire Wire Line
	5850 1350 6500 1350
Wire Wire Line
	6500 1400 6500 1350
Connection ~ 6500 1350
Wire Wire Line
	6500 1700 6500 1750
Wire Wire Line
	6500 2050 6500 2100
$Comp
L power:GND #PWR018
U 1 1 5E596FC1
P 8950 5800
F 0 "#PWR018" H 8950 5550 50  0001 C CNN
F 1 "GND" H 8950 5650 50  0000 C CNN
F 2 "" H 8950 5800 50  0001 C CNN
F 3 "" H 8950 5800 50  0001 C CNN
	1    8950 5800
	1    0    0    -1  
$EndComp
$Comp
L power:GND #PWR019
U 1 1 5E59872F
P 1700 6800
F 0 "#PWR019" H 1700 6550 50  0001 C CNN
F 1 "GND" H 1700 6650 50  0000 C CNN
F 2 "" H 1700 6800 50  0001 C CNN
F 3 "" H 1700 6800 50  0001 C CNN
	1    1700 6800
	1    0    0    -1  
$EndComp
Wire Wire Line
	8950 5800 8950 5750
Connection ~ 8950 5750
Connection ~ 1700 6550
Wire Wire Line
	5850 3750 6200 3750
Wire Wire Line
	6000 3950 6750 3950
Wire Wire Line
	6200 4100 6200 3750
Connection ~ 6200 3750
Wire Wire Line
	6200 3750 7050 3750
Wire Wire Line
	6200 4400 6200 4450
Wire Wire Line
	6750 4100 6750 3950
Connection ~ 6750 3950
Wire Wire Line
	6750 3950 7050 3950
Wire Wire Line
	6750 4400 6750 4450
$Comp
L power:GND #PWR016
U 1 1 5E66AF49
P 6750 4800
F 0 "#PWR016" H 6750 4550 50  0001 C CNN
F 1 "GND" H 6750 4650 50  0000 C CNN
F 2 "" H 6750 4800 50  0001 C CNN
F 3 "" H 6750 4800 50  0001 C CNN
	1    6750 4800
	1    0    0    -1  
$EndComp
$Comp
L power:GND #PWR014
U 1 1 5E66C06A
P 6200 4800
F 0 "#PWR014" H 6200 4550 50  0001 C CNN
F 1 "GND" H 6200 4650 50  0000 C CNN
F 2 "" H 6200 4800 50  0001 C CNN
F 3 "" H 6200 4800 50  0001 C CNN
	1    6200 4800
	1    0    0    -1  
$EndComp
Wire Wire Line
	6750 4750 6750 4800
Wire Wire Line
	6200 4750 6200 4800
$Comp
L power:GND #PWR021
U 1 1 5E68FDEF
P 7350 4250
F 0 "#PWR021" H 7350 4000 50  0001 C CNN
F 1 "GND" H 7350 4100 50  0000 C CNN
F 2 "" H 7350 4250 50  0001 C CNN
F 3 "" H 7350 4250 50  0001 C CNN
	1    7350 4250
	1    0    0    -1  
$EndComp
Wire Wire Line
	7350 4200 7350 4250
Wire Wire Line
	7000 3850 7000 4200
Wire Wire Line
	7000 3850 7100 3850
$Comp
L Connector_Generic:Conn_01x04 J13
U 1 1 5E72EA9A
P 2500 6350
F 0 "J13" H 2580 6342 50  0000 L CNN
F 1 "Conn_01x04" H 2250 6600 50  0000 L CNN
F 2 "Connector:FanPinHeader_1x04_P2.54mm_Vertical" H 2500 6350 50  0001 C CNN
F 3 "" H 2500 6350 50  0001 C CNN
F 4 "Molex" H 2500 6350 50  0001 C CNN "Manufacturer"
F 5 "0470531000" H 2500 6350 50  0001 C CNN "Part Number"
	1    2500 6350
	1    0    0    -1  
$EndComp
$Comp
L power:GND #PWR012
U 1 1 5E7342C5
P 5100 5650
F 0 "#PWR012" H 5100 5400 50  0001 C CNN
F 1 "GND" H 5100 5500 50  0000 C CNN
F 2 "" H 5100 5650 50  0001 C CNN
F 3 "" H 5100 5650 50  0001 C CNN
	1    5100 5650
	1    0    0    -1  
$EndComp
Wire Wire Line
	2300 6250 2250 6250
Wire Wire Line
	2300 6350 2200 6350
Wire Wire Line
	2200 6350 2200 5950
Connection ~ 2200 5950
$Comp
L Connector_Generic:Conn_01x04 J14
U 1 1 5E76B04D
P 3050 6350
F 0 "J14" H 3130 6342 50  0000 L CNN
F 1 "Conn_01x04" H 2800 6600 50  0000 L CNN
F 2 "Connector:FanPinHeader_1x04_P2.54mm_Vertical" H 3050 6350 50  0001 C CNN
F 3 "" H 3050 6350 50  0001 C CNN
F 4 "Molex" H 3050 6350 50  0001 C CNN "Manufacturer"
F 5 "0470531000" H 3050 6350 50  0001 C CNN "Part Number"
	1    3050 6350
	1    0    0    -1  
$EndComp
$Comp
L Connector_Generic:Conn_01x04 J15
U 1 1 5E76B83B
P 3600 6350
F 0 "J15" H 3680 6342 50  0000 L CNN
F 1 "Conn_01x04" H 3350 6600 50  0000 L CNN
F 2 "Connector:FanPinHeader_1x04_P2.54mm_Vertical" H 3600 6350 50  0001 C CNN
F 3 "" H 3600 6350 50  0001 C CNN
F 4 "Molex" H 3600 6350 50  0001 C CNN "Manufacturer"
F 5 "0470531000" H 3600 6350 50  0001 C CNN "Part Number"
	1    3600 6350
	1    0    0    -1  
$EndComp
$Comp
L Connector_Generic:Conn_01x04 J16
U 1 1 5E76BBB3
P 4150 6350
F 0 "J16" H 4230 6342 50  0000 L CNN
F 1 "Conn_01x04" H 3900 6600 50  0000 L CNN
F 2 "Connector:FanPinHeader_1x04_P2.54mm_Vertical" H 4150 6350 50  0001 C CNN
F 3 "" H 4150 6350 50  0001 C CNN
F 4 "Molex" H 4150 6350 50  0001 C CNN "Manufacturer"
F 5 "0470531000" H 4150 6350 50  0001 C CNN "Part Number"
	1    4150 6350
	1    0    0    -1  
$EndComp
$Comp
L Connector_Generic:Conn_01x04 J17
U 1 1 5E76C486
P 4700 6350
F 0 "J17" H 4780 6342 50  0000 L CNN
F 1 "Conn_01x04" H 4450 6600 50  0000 L CNN
F 2 "Connector:FanPinHeader_1x04_P2.54mm_Vertical" H 4700 6350 50  0001 C CNN
F 3 "" H 4700 6350 50  0001 C CNN
F 4 "Molex" H 4700 6350 50  0001 C CNN "Manufacturer"
F 5 "0470531000" H 4700 6350 50  0001 C CNN "Part Number"
	1    4700 6350
	1    0    0    -1  
$EndComp
$Comp
L Connector_Generic:Conn_01x04 J18
U 1 1 5E76C76B
P 5250 6350
F 0 "J18" H 5330 6342 50  0000 L CNN
F 1 "Conn_01x04" H 5000 6600 50  0000 L CNN
F 2 "Connector:FanPinHeader_1x04_P2.54mm_Vertical" H 5250 6350 50  0001 C CNN
F 3 "" H 5250 6350 50  0001 C CNN
F 4 "Molex" H 5250 6350 50  0001 C CNN "Manufacturer"
F 5 "0470531000" H 5250 6350 50  0001 C CNN "Part Number"
	1    5250 6350
	1    0    0    -1  
$EndComp
Wire Wire Line
	2850 6250 2800 6250
Wire Wire Line
	2850 6350 2750 6350
Wire Wire Line
	2750 6350 2750 5950
Connection ~ 2750 5950
Wire Wire Line
	2750 5950 3300 5950
Wire Wire Line
	3400 6350 3300 6350
Wire Wire Line
	3300 6350 3300 5950
Connection ~ 3300 5950
Wire Wire Line
	3300 5950 3850 5950
Wire Wire Line
	3950 6350 3850 6350
Wire Wire Line
	3850 6350 3850 5950
Connection ~ 3850 5950
Wire Wire Line
	3850 5950 4400 5950
Wire Wire Line
	4500 6350 4400 6350
Wire Wire Line
	4400 6350 4400 5950
Connection ~ 4400 5950
Wire Wire Line
	4400 5950 4950 5950
Wire Wire Line
	5050 6350 4950 6350
Wire Wire Line
	4950 6350 4950 5950
Wire Wire Line
	2250 6250 2250 5600
Wire Wire Line
	2250 5600 2800 5600
Wire Wire Line
	2800 6250 2800 5600
Connection ~ 2800 5600
Wire Wire Line
	2800 5600 3350 5600
Wire Wire Line
	3400 6250 3350 6250
Wire Wire Line
	3350 6250 3350 5600
Connection ~ 3350 5600
Wire Wire Line
	3950 6250 3900 6250
Wire Wire Line
	3900 6250 3900 5600
Wire Wire Line
	4500 6250 4450 6250
Wire Wire Line
	4450 6250 4450 5600
Wire Wire Line
	4450 5600 3900 5600
Connection ~ 3900 5600
Wire Wire Line
	5050 6250 5000 6250
Wire Wire Line
	5000 6250 5000 5600
Wire Wire Line
	5000 5600 4450 5600
Connection ~ 4450 5600
Wire Wire Line
	5000 5600 5100 5600
Wire Wire Line
	5100 5600 5100 5650
Connection ~ 5000 5600
Wire Wire Line
	3350 5600 3900 5600
Wire Wire Line
	2200 5950 2750 5950
Text Notes 5000 6800 0    129  ~ 0
+12.0V
$Comp
L Connector_Generic:Conn_02x06_Odd_Even J19
U 1 1 5E8D17D8
P 3800 7250
F 0 "J19" H 3850 7200 50  0000 C CNN
F 1 "Conn_02x06_Odd_Even" H 3850 6850 50  0000 C CNN
F 2 "Connector_PinHeader_2.54mm:PinHeader_2x06_P2.54mm_Vertical" H 3800 7250 50  0001 C CNN
F 3 "" H 3800 7250 50  0001 C CNN
F 4 "Molex" H 3800 7250 50  0001 C CNN "Manufacturer"
F 5 "0010897120" H 3800 7250 50  0001 C CNN "Part Number"
	1    3800 7250
	1    0    0    -1  
$EndComp
Wire Wire Line
	4150 6950 4150 7050
Wire Wire Line
	4150 7050 4100 7050
Wire Wire Line
	2850 6450 2800 6450
Wire Wire Line
	2750 7150 3600 7150
Wire Wire Line
	2800 6900 4200 6900
Wire Wire Line
	4200 6900 4200 7150
Wire Wire Line
	4200 7150 4100 7150
Wire Wire Line
	2200 7050 3600 7050
Wire Wire Line
	2250 6950 4150 6950
Wire Wire Line
	3400 6450 3350 6450
Wire Wire Line
	3300 7250 3600 7250
Wire Wire Line
	3350 6850 4250 6850
Wire Wire Line
	4250 6850 4250 7250
Wire Wire Line
	4250 7250 4100 7250
Wire Wire Line
	3900 6800 4300 6800
Wire Wire Line
	4300 6800 4300 7350
Wire Wire Line
	4300 7350 4100 7350
Wire Wire Line
	5000 7550 4100 7550
Wire Wire Line
	4100 7450 4450 7450
Wire Wire Line
	3950 6450 3900 6450
Wire Wire Line
	3850 6800 3550 6800
Wire Wire Line
	3550 6800 3550 7350
Wire Wire Line
	3550 7350 3600 7350
Wire Wire Line
	4500 6450 4450 6450
Wire Wire Line
	4400 6750 3500 6750
Wire Wire Line
	3500 6750 3500 7450
Wire Wire Line
	3500 7450 3600 7450
Wire Wire Line
	5050 6450 5000 6450
Wire Wire Line
	4950 6700 3450 6700
Wire Wire Line
	3450 6700 3450 7550
Wire Wire Line
	3450 7550 3600 7550
$Comp
L dk_LED-Indication-Discrete:LTST-C190KRKT D7
U 1 1 5E3864BC
P 6750 4550
F 0 "D7" H 6800 4600 60  0000 C CNN
F 1 "LTST-C190CKT" H 6600 4450 60  0000 C CNN
F 2 "000_footprint:LED_0603" H 6950 4750 60  0001 L CNN
F 3 "" H 6950 4850 60  0001 L CNN
F 4 "Lite-On Inc." H 6950 5650 60  0001 L CNN "Manufacturer"
F 5 "LTST-C190CKT" H 6950 5050 60  0001 L CNN "Part Number"
	1    6750 4550
	0    -1   -1   0   
$EndComp
$Comp
L dk_LED-Indication-Discrete:LTST-C190KRKT D6
U 1 1 5E385CF9
P 6200 4650
F 0 "D6" H 6300 4750 60  0000 C CNN
F 1 "LTST-C190CKT" H 6250 4550 60  0000 C CNN
F 2 "000_footprint:LED_0603" H 6400 4850 60  0001 L CNN
F 3 "" H 6400 4950 60  0001 L CNN
F 4 "Lite-On Inc." H 6400 5750 60  0001 L CNN "Manufacturer"
F 5 "LTST-C190CKT" H 6400 5150 60  0001 L CNN "Part Number"
	1    6200 4650
	0    1    1    0   
$EndComp
Wire Wire Line
	2200 6550 2200 7050
Wire Wire Line
	2200 6550 2300 6550
Wire Wire Line
	2250 6950 2250 6450
Wire Wire Line
	2250 6450 2300 6450
Wire Wire Line
	2750 6550 2750 7150
Wire Wire Line
	2750 6550 2850 6550
Wire Wire Line
	2800 6900 2800 6450
Wire Wire Line
	3300 6550 3300 7250
Wire Wire Line
	3300 6550 3400 6550
Wire Wire Line
	3350 6850 3350 6450
Wire Wire Line
	3850 6550 3850 6800
Wire Wire Line
	3850 6550 3950 6550
Wire Wire Line
	3900 6800 3900 6450
Wire Wire Line
	4400 6550 4400 6750
Wire Wire Line
	4400 6550 4500 6550
Wire Wire Line
	4950 6550 4950 6700
Wire Wire Line
	4950 6550 5050 6550
Wire Wire Line
	4450 7450 4450 6450
Wire Wire Line
	5000 7550 5000 6450
$Comp
L Connector_Generic:Conn_02x05_Top_Bottom J10
U 1 1 5E2C3C33
P 9550 5550
F 0 "J10" H 9600 5967 50  0000 C CNN
F 1 "Conn_02x05_Top_Bottom" H 9600 5876 50  0000 C CNN
F 2 "000_footprint:MOLEX_0039281103" H 9550 5550 50  0001 C CNN
F 3 "" H 9550 5550 50  0001 C CNN
F 4 "Molex" H 9550 5550 50  0001 C CNN "Manufacturer"
F 5 "0039281103" H 9550 5550 50  0001 C CNN "Part Number"
	1    9550 5550
	-1   0    0    -1  
$EndComp
$Comp
L power:GND #PWR022
U 1 1 5E2CBE13
P 9800 5800
F 0 "#PWR022" H 9800 5550 50  0001 C CNN
F 1 "GND" H 9800 5650 50  0000 C CNN
F 2 "" H 9800 5800 50  0001 C CNN
F 3 "" H 9800 5800 50  0001 C CNN
	1    9800 5800
	1    0    0    -1  
$EndComp
Wire Wire Line
	9750 5350 9800 5350
Wire Wire Line
	9800 5350 9800 5450
Wire Wire Line
	9750 5450 9800 5450
Connection ~ 9800 5450
Wire Wire Line
	9800 5450 9800 5550
Wire Wire Line
	9750 5550 9800 5550
Connection ~ 9800 5550
Wire Wire Line
	9800 5550 9800 5650
Wire Wire Line
	9750 5650 9800 5650
Connection ~ 9800 5650
Wire Wire Line
	9800 5650 9800 5750
Wire Wire Line
	9750 5750 9800 5750
Connection ~ 9800 5750
Wire Wire Line
	9800 5750 9800 5800
Wire Wire Line
	8350 5350 8350 5250
Wire Wire Line
	8350 5250 9200 5250
Wire Wire Line
	9200 5250 9200 5350
Wire Wire Line
	9200 5750 9250 5750
Wire Wire Line
	9250 5650 9200 5650
Connection ~ 9200 5650
Wire Wire Line
	9200 5650 9200 5750
Wire Wire Line
	9250 5550 9200 5550
Connection ~ 9200 5550
Wire Wire Line
	9200 5550 9200 5650
Wire Wire Line
	9250 5450 9200 5450
Connection ~ 9200 5450
Wire Wire Line
	9200 5450 9200 5550
Wire Wire Line
	9250 5350 9200 5350
Connection ~ 9200 5350
Wire Wire Line
	9200 5350 9200 5450
Wire Wire Line
	6500 1350 7050 1350
$Comp
L Mechanical:MountingHole H5
U 1 1 5E482516
P 1900 7600
F 0 "H5" H 2000 7646 50  0000 L CNN
F 1 "MountingHole" H 2000 7555 50  0000 L CNN
F 2 "MountingHole:MountingHole_3.2mm_M3" H 1900 7600 50  0001 C CNN
F 3 "" H 1900 7600 50  0001 C CNN
	1    1900 7600
	1    0    0    -1  
$EndComp
Connection ~ 1100 6250
Wire Wire Line
	2200 5950 950  5950
Wire Wire Line
	950  5950 950  6250
Wire Wire Line
	950  6250 1100 6250
Wire Wire Line
	2200 2450 2200 3700
Wire Wire Line
	2200 5300 6450 5300
Connection ~ 2200 5300
Wire Wire Line
	2200 5300 2200 5950
Wire Wire Line
	2800 3850 2950 3850
$Comp
L Device:R R33
U 1 1 61C65FB0
P 4400 3950
F 0 "R33" V 4500 4000 50  0000 L CNN
F 1 "10k" V 4500 3800 50  0000 L CNN
F 2 "Resistor_SMD:R_0603_1608Metric" V 4330 3950 50  0001 C CNN
F 3 "" H 4400 3950 50  0001 C CNN
F 4 "Yageo" H 4400 3950 50  0001 C CNN "Manufacturer"
F 5 "RC0603FR-0710KL" H 4400 3950 50  0001 C CNN "Part Number"
	1    4400 3950
	1    0    0    -1  
$EndComp
$Comp
L dk_LED-Indication-Discrete:LTST-C190KRKT D101
U 1 1 61C65FBC
P 4400 4350
F 0 "D101" H 4350 4687 60  0000 C CNN
F 1 "LTST-C190CKT" H 4350 4581 60  0000 C CNN
F 2 "000_footprint:LED_0603" H 4600 4550 60  0001 L CNN
F 3 "" H 4600 4650 60  0001 L CNN
F 4 "Lite-On Inc." H 4600 5450 60  0001 L CNN "Manufacturer"
F 5 "LTST-C190CKT" H 4600 4850 60  0001 L CNN "Part Number"
	1    4400 4350
	0    1    1    0   
$EndComp
$Comp
L power:GND #PWR0102
U 1 1 61C65FC7
P 2800 3850
F 0 "#PWR0102" H 2800 3600 50  0001 C CNN
F 1 "GND" H 2800 3700 50  0000 C CNN
F 2 "" H 2800 3850 50  0001 C CNN
F 3 "" H 2800 3850 50  0001 C CNN
	1    2800 3850
	1    0    0    -1  
$EndComp
$Comp
L power:GND #PWR0103
U 1 1 61C65FDD
P 4400 4500
F 0 "#PWR0103" H 4400 4250 50  0001 C CNN
F 1 "GND" H 4400 4350 50  0000 C CNN
F 2 "" H 4400 4500 50  0001 C CNN
F 3 "" H 4400 4500 50  0001 C CNN
	1    4400 4500
	1    0    0    -1  
$EndComp
Wire Wire Line
	4400 4450 4400 4500
Wire Wire Line
	4400 3750 4400 3800
Connection ~ 4400 3750
Wire Wire Line
	4400 4100 4400 4150
Wire Wire Line
	2950 3700 2200 3700
$Sheet
S 2950 3600 750  350 
U 61C65F9B
F0 "DCDC12V0_5V3" 50
F1 "DCDC12V0_5V3_ADP2384.sch" 50
F2 "Vin12V0" I L 2950 3700 50 
F3 "GND" I L 2950 3850 50 
F4 "Vout5V3" O R 3700 3750 50 
$EndSheet
$Sheet
S 5100 3650 750  350 
U 5E2BE524
F0 "DCDC5V3_5V0PN" 50
F1 "DCDC5V3_5V0PN_LM27762.sch" 50
F2 "GND" I L 5100 3900 50 
F3 "Vout5V0P" O R 5850 3750 50 
F4 "Vout5V0N" O R 5850 3900 50 
F5 "Vin5V3" I L 5100 3750 50 
$EndSheet
Connection ~ 2200 3700
Wire Wire Line
	2200 3700 2200 5300
Wire Wire Line
	4400 3750 5100 3750
Wire Wire Line
	7200 5350 7900 5350
Wire Wire Line
	3700 1300 4400 1300
$Comp
L Connector_Generic:Conn_02x05_Top_Bottom J11
U 1 1 61A73EDF
P 10400 5550
F 0 "J11" H 10450 5967 50  0000 C CNN
F 1 "Conn_02x05_Top_Bottom" H 10450 5876 50  0000 C CNN
F 2 "000_footprint:MOLEX_0039281103" H 10400 5550 50  0001 C CNN
F 3 "" H 10400 5550 50  0001 C CNN
F 4 "Molex" H 10400 5550 50  0001 C CNN "Manufacturer"
F 5 "0039281103" H 10400 5550 50  0001 C CNN "Part Number"
	1    10400 5550
	-1   0    0    -1  
$EndComp
$Comp
L power:GND #PWR07
U 1 1 61A740B3
P 10650 5800
F 0 "#PWR07" H 10650 5550 50  0001 C CNN
F 1 "GND" H 10650 5650 50  0000 C CNN
F 2 "" H 10650 5800 50  0001 C CNN
F 3 "" H 10650 5800 50  0001 C CNN
	1    10650 5800
	1    0    0    -1  
$EndComp
Wire Wire Line
	10600 5350 10650 5350
Wire Wire Line
	10650 5350 10650 5450
Wire Wire Line
	10600 5450 10650 5450
Connection ~ 10650 5450
Wire Wire Line
	10650 5450 10650 5550
Wire Wire Line
	10600 5550 10650 5550
Connection ~ 10650 5550
Wire Wire Line
	10650 5550 10650 5650
Wire Wire Line
	10600 5650 10650 5650
Connection ~ 10650 5650
Wire Wire Line
	10650 5650 10650 5750
Wire Wire Line
	10600 5750 10650 5750
Connection ~ 10650 5750
Wire Wire Line
	10650 5750 10650 5800
Wire Wire Line
	9200 5250 10050 5250
Wire Wire Line
	10050 5250 10050 5350
Wire Wire Line
	10050 5750 10100 5750
Wire Wire Line
	10100 5650 10050 5650
Connection ~ 10050 5650
Wire Wire Line
	10050 5650 10050 5750
Wire Wire Line
	10100 5550 10050 5550
Connection ~ 10050 5550
Wire Wire Line
	10050 5550 10050 5650
Wire Wire Line
	10100 5450 10050 5450
Connection ~ 10050 5450
Wire Wire Line
	10050 5450 10050 5550
Wire Wire Line
	10100 5350 10050 5350
Connection ~ 10050 5350
Wire Wire Line
	10050 5350 10050 5450
Connection ~ 9200 5250
Wire Wire Line
	3700 3750 4400 3750
$Comp
L Connector_Generic:Conn_02x10_Top_Bottom J5
U 1 1 61AB6E65
P 8600 2000
F 0 "J5" H 8650 2617 50  0000 C CNN
F 1 "Conn_02x10_Top_Bottom" H 8650 2526 50  0000 C CNN
F 2 "000_footprint:MOLEX_0039281203" H 8600 2000 50  0001 C CNN
F 3 "" H 8600 2000 50  0001 C CNN
F 4 "Molex" H 8600 2000 50  0001 C CNN "Manufacturer"
F 5 "0039281203" H 8600 2000 50  0001 C CNN "Part Number"
	1    8600 2000
	-1   0    0    -1  
$EndComp
Wire Wire Line
	5200 2500 8250 2500
Connection ~ 5200 2500
Connection ~ 8250 2500
Wire Wire Line
	8250 2500 8250 2700
Wire Wire Line
	8250 2700 9200 2700
Wire Wire Line
	9750 2400 9800 2400
Connection ~ 9800 2400
Wire Wire Line
	9800 2400 9800 2500
Wire Wire Line
	9750 2300 9800 2300
Connection ~ 9800 2300
Wire Wire Line
	9800 2300 9800 2400
Wire Wire Line
	9750 2200 9800 2200
Connection ~ 9800 2200
Wire Wire Line
	9800 2200 9800 2300
Wire Wire Line
	9750 2100 9800 2100
Connection ~ 9800 2100
Wire Wire Line
	9800 2100 9800 2200
Wire Wire Line
	9750 2000 9800 2000
Connection ~ 9800 2000
Wire Wire Line
	9800 2000 9800 2100
Wire Wire Line
	9750 1900 9800 1900
Connection ~ 9800 1900
Wire Wire Line
	9800 1900 9800 2000
Wire Wire Line
	9750 1800 9800 1800
Connection ~ 9800 1800
Wire Wire Line
	9800 1800 9800 1900
Wire Wire Line
	9750 1700 9800 1700
Connection ~ 9800 1700
Wire Wire Line
	9800 1700 9800 1800
Wire Wire Line
	9750 1600 9800 1600
Wire Wire Line
	9800 1600 9800 1700
Wire Wire Line
	9200 2500 9200 2400
Wire Wire Line
	9250 1600 9200 1600
Wire Wire Line
	9250 1700 9200 1700
Connection ~ 9200 1700
Wire Wire Line
	9200 1700 9200 1600
Wire Wire Line
	9250 1800 9200 1800
Connection ~ 9200 1800
Wire Wire Line
	9200 1800 9200 1700
Wire Wire Line
	9250 1900 9200 1900
Connection ~ 9200 1900
Wire Wire Line
	9200 1900 9200 1800
Wire Wire Line
	9250 2000 9200 2000
Connection ~ 9200 2000
Wire Wire Line
	9200 2000 9200 1900
Wire Wire Line
	9250 2100 9200 2100
Connection ~ 9200 2100
Wire Wire Line
	9200 2100 9200 2000
Wire Wire Line
	9250 2300 9200 2300
Connection ~ 9200 2300
Wire Wire Line
	9200 2300 9200 2200
Wire Wire Line
	9250 2400 9200 2400
Connection ~ 9200 2400
Wire Wire Line
	9200 2400 9200 2300
Wire Wire Line
	9250 2200 9200 2200
Connection ~ 9200 2200
Wire Wire Line
	9200 2200 9200 2100
$Comp
L power:GND #PWR06
U 1 1 61C78A61
P 9800 2550
F 0 "#PWR06" H 9800 2300 50  0001 C CNN
F 1 "GND" H 9900 2550 50  0000 C CNN
F 2 "" H 9800 2550 50  0001 C CNN
F 3 "" H 9800 2550 50  0001 C CNN
	1    9800 2550
	1    0    0    -1  
$EndComp
Wire Wire Line
	9800 2500 9750 2500
Wire Wire Line
	9200 2500 9250 2500
Wire Wire Line
	9800 2550 9800 2500
Connection ~ 9800 2500
$Comp
L Connector_Generic:Conn_02x10_Top_Bottom J6
U 1 1 61C78A71
P 9550 2000
F 0 "J6" H 9600 2617 50  0000 C CNN
F 1 "Conn_02x10_Top_Bottom" H 9600 2526 50  0000 C CNN
F 2 "000_footprint:MOLEX_0039281203" H 9550 2000 50  0001 C CNN
F 3 "" H 9550 2000 50  0001 C CNN
F 4 "Molex" H 9550 2000 50  0001 C CNN "Manufacturer"
F 5 "0039281203" H 9550 2000 50  0001 C CNN "Part Number"
	1    9550 2000
	-1   0    0    -1  
$EndComp
Connection ~ 9200 2500
Wire Wire Line
	9200 2500 9200 2700
$Comp
L Connector_Generic:Conn_02x03_Top_Bottom J7
U 1 1 61D597F9
P 7300 3850
F 0 "J7" H 7350 4167 50  0000 C CNN
F 1 "Conn_02x03_Top_Bottom" H 7350 4076 50  0000 C CNN
F 2 "000_footprint:MOLEX_0039281063" H 7300 3850 50  0001 C CNN
F 3 "" H 7300 3850 50  0001 C CNN
F 4 "Molex" H 7300 3850 50  0001 C CNN "Manufacturer"
F 5 "0039281063" H 7300 3850 50  0001 C CNN "Part Number"
	1    7300 3850
	1    0    0    -1  
$EndComp
Wire Wire Line
	7050 3650 7650 3650
Wire Wire Line
	7000 4200 7350 4200
Wire Wire Line
	7050 4050 7650 4050
Wire Wire Line
	7600 3750 7650 3750
Wire Wire Line
	7650 3750 7650 3650
Wire Wire Line
	7600 3950 7650 3950
Wire Wire Line
	7650 3950 7650 4050
Wire Wire Line
	7600 3850 7700 3850
Wire Wire Line
	7700 3850 7700 4200
Connection ~ 7350 4200
Wire Wire Line
	7350 4200 7700 4200
$Comp
L power:GND #PWR0101
U 1 1 61E907FB
P 8200 4250
F 0 "#PWR0101" H 8200 4000 50  0001 C CNN
F 1 "GND" H 8200 4100 50  0000 C CNN
F 2 "" H 8200 4250 50  0001 C CNN
F 3 "" H 8200 4250 50  0001 C CNN
	1    8200 4250
	1    0    0    -1  
$EndComp
Wire Wire Line
	8200 4200 8200 4250
$Comp
L Connector_Generic:Conn_02x03_Top_Bottom J8
U 1 1 61E90809
P 8150 3850
F 0 "J8" H 8200 4167 50  0000 C CNN
F 1 "Conn_02x03_Top_Bottom" H 8200 4076 50  0000 C CNN
F 2 "000_footprint:MOLEX_0039281063" H 8150 3850 50  0001 C CNN
F 3 "" H 8150 3850 50  0001 C CNN
F 4 "Molex" H 8150 3850 50  0001 C CNN "Manufacturer"
F 5 "0039281063" H 8150 3850 50  0001 C CNN "Part Number"
	1    8150 3850
	1    0    0    -1  
$EndComp
Wire Wire Line
	7900 3650 8500 3650
Wire Wire Line
	7850 4200 8200 4200
Wire Wire Line
	7900 4050 8500 4050
Wire Wire Line
	8450 3750 8500 3750
Wire Wire Line
	8500 3750 8500 3650
Wire Wire Line
	8450 3950 8500 3950
Wire Wire Line
	8500 3950 8500 4050
Wire Wire Line
	8450 3850 8550 3850
Wire Wire Line
	8550 3850 8550 4200
Connection ~ 8200 4200
Wire Wire Line
	8200 4200 8550 4200
Wire Wire Line
	7650 3750 7900 3750
Connection ~ 7650 3750
Wire Wire Line
	7900 3650 7900 3750
Connection ~ 7900 3750
Wire Wire Line
	7900 3750 7950 3750
Wire Wire Line
	7700 3850 7850 3850
Connection ~ 7700 3850
Wire Wire Line
	7650 3950 7900 3950
Connection ~ 7650 3950
Wire Wire Line
	7900 4050 7900 3950
Connection ~ 7900 3950
Wire Wire Line
	7900 3950 7950 3950
Wire Wire Line
	7850 4200 7850 3850
Connection ~ 7850 3850
Wire Wire Line
	7850 3850 7950 3850
Wire Wire Line
	7100 1450 7050 1450
Wire Wire Line
	7050 1450 7050 1350
Wire Wire Line
	7050 1350 7100 1350
Wire Wire Line
	7100 1550 7050 1550
Wire Wire Line
	7050 1550 7050 1450
Connection ~ 7050 1450
Wire Wire Line
	7100 1650 7050 1650
Wire Wire Line
	7050 1650 7050 1550
Connection ~ 7050 1550
Wire Wire Line
	7600 1350 7650 1350
Wire Wire Line
	7650 1350 7650 1450
Wire Wire Line
	7650 1650 7600 1650
Wire Wire Line
	7600 1550 7650 1550
Connection ~ 7650 1550
Wire Wire Line
	7650 1550 7650 1650
Wire Wire Line
	7600 1450 7650 1450
Connection ~ 7650 1450
Wire Wire Line
	7650 1450 7650 1550
$Comp
L Connector_Generic:Conn_02x04_Top_Bottom J4
U 1 1 61FC6A8F
P 7400 1450
F 0 "J4" H 7450 1767 50  0000 C CNN
F 1 "Conn_02x04_Top_Bottom" H 7450 1676 50  0000 C CNN
F 2 "000_footprint:MOLEX_0039281083" H 7400 1450 50  0001 C CNN
F 3 "" H 7400 1450 50  0001 C CNN
F 4 "Molex" H 7400 1450 50  0001 C CNN "Manufacturer"
F 5 "0039281083" H 7400 1450 50  0001 C CNN "Part Number"
	1    7400 1450
	-1   0    0    -1  
$EndComp
$Comp
L power:GND #PWR?
U 1 1 61FC6A99
P 7650 1700
F 0 "#PWR?" H 7650 1450 50  0001 C CNN
F 1 "GND" H 7650 1550 50  0000 C CNN
F 2 "" H 7650 1700 50  0001 C CNN
F 3 "" H 7650 1700 50  0001 C CNN
	1    7650 1700
	1    0    0    -1  
$EndComp
Wire Wire Line
	7650 1700 7650 1650
Connection ~ 7650 1650
Connection ~ 7050 1350
$Comp
L Connector_Generic:Conn_02x06_Top_Bottom J12
U 1 1 62099037
P 1450 6450
F 0 "J12" H 1500 6867 50  0000 C CNN
F 1 "Conn_02x06_Top_Bottom" H 1500 6776 50  0000 C CNN
F 2 "000_footprint:MOLEX_0039281123" H 1450 6450 50  0001 C CNN
F 3 "" H 1450 6450 50  0001 C CNN
F 4 "Molex" H 1450 6450 50  0001 C CNN "Manufacturer"
F 5 "0039281123" H 1450 6450 50  0001 C CNN "Part Number"
	1    1450 6450
	-1   0    0    -1  
$EndComp
Wire Wire Line
	1700 6650 1650 6650
Wire Wire Line
	1700 6550 1700 6650
Wire Wire Line
	1650 6750 1700 6750
Wire Wire Line
	1700 6750 1700 6650
Connection ~ 1700 6650
Wire Wire Line
	1700 6800 1700 6750
Connection ~ 1700 6750
Wire Wire Line
	1150 6650 1100 6650
Wire Wire Line
	1100 6650 1100 6550
Connection ~ 1100 6550
Wire Wire Line
	1150 6750 1100 6750
Wire Wire Line
	1100 6750 1100 6650
Connection ~ 1100 6650
$EndSCHEMATC
